ISO-10303-21;
HEADER;
FILE_DESCRIPTION (( 'STEP AP214' ),
    '1' );
FILE_NAME ('CUI_PCN2-S5-S5-S.step',
    '2017-08-14T17:10:08',
    ( '' ),
    ( '' ),
    'SwSTEP 2.0',
    'SolidWorks 2017',
    '' );
FILE_SCHEMA (( 'AUTOMOTIVE_DESIGN' ));
ENDSEC;

DATA;
#1 = VECTOR ( 'NONE', #418, 1000.000000000000000 ) ;
#2 = DIRECTION ( 'NONE',  ( 0.0000000000000000000, 0.0000000000000000000, 1.000000000000000000 ) ) ;
#3 = FACE_BOUND ( 'NONE', #407, .T. ) ;
#4 = CARTESIAN_POINT ( 'NONE',  ( 0.0000000000000000000, 0.0000000000000000000, 0.0000000000000000000 ) ) ;
#5 = VECTOR ( 'NONE', #930, 1000.000000000000000 ) ;
#6 =( GEOMETRIC_REPRESENTATION_CONTEXT ( 3 ) GLOBAL_UNCERTAINTY_ASSIGNED_CONTEXT ( ( #691 ) ) GLOBAL_UNIT_ASSIGNED_CONTEXT ( ( #40, #704, #802 ) ) REPRESENTATION_CONTEXT ( 'NONE', 'WORKASPACE' ) );
#7 = ORIENTED_EDGE ( 'NONE', *, *, #480, .F. ) ;
#8 = VERTEX_POINT ( 'NONE', #855 ) ;
#9 = FILL_AREA_STYLE ('',( #585 ) ) ;
#10 = ORIENTED_EDGE ( 'NONE', *, *, #678, .F. ) ;
#11 = AXIS2_PLACEMENT_3D ( 'NONE', #340, #251, #442 ) ;
#12 = VECTOR ( 'NONE', #358, 1000.000000000000000 ) ;
#13 = VERTEX_POINT ( 'NONE', #103 ) ;
#14 = VECTOR ( 'NONE', #260, 1000.000000000000000 ) ;
#15 = DIRECTION ( 'NONE',  ( 1.000000000000000000, 0.0000000000000000000, 0.0000000000000000000 ) ) ;
#16 = COLOUR_RGB ( '',0.2509803921568627400, 0.2509803921568627400, 0.2509803921568627400 ) ;
#17 = LINE ( 'NONE', #509, #187 ) ;
#18 = EDGE_CURVE ( 'NONE', #601, #1027, #78, .T. ) ;
#19 = DIRECTION ( 'NONE',  ( -1.000000000000000000, -0.0000000000000000000, -0.0000000000000000000 ) ) ;
#20 = AXIS2_PLACEMENT_3D ( 'NONE', #1035, #310, #949 ) ;
#21 = SURFACE_SIDE_STYLE ('',( #775 ) ) ;
#22 = CARTESIAN_POINT ( 'NONE',  ( -7.250000000000001800, -4.599999999999999600, 1.800000000000000300 ) ) ;
#23 = ORIENTED_EDGE ( 'NONE', *, *, #323, .T. ) ;
#24 = ORIENTED_EDGE ( 'NONE', *, *, #436, .F. ) ;
#25 = CLOSED_SHELL ( 'NONE', ( #889, #998, #821, #272, #145, #82 ) ) ;
#26 = CIRCLE ( 'NONE', #112, 0.4000000000000001900 ) ;
#27 = CARTESIAN_POINT ( 'NONE',  ( 4.949999999999999300, -4.599999999999999600, 1.800000000000000300 ) ) ;
#28 = SHAPE_DEFINITION_REPRESENTATION ( #869, #1158 ) ;
#29 =( GEOMETRIC_REPRESENTATION_CONTEXT ( 3 ) GLOBAL_UNCERTAINTY_ASSIGNED_CONTEXT ( ( #287 ) ) GLOBAL_UNIT_ASSIGNED_CONTEXT ( ( #1067, #596, #108 ) ) REPRESENTATION_CONTEXT ( 'NONE', 'WORKASPACE' ) );
#30 = LINE ( 'NONE', #230, #231 ) ;
#31 =( GEOMETRIC_REPRESENTATION_CONTEXT ( 3 ) GLOBAL_UNCERTAINTY_ASSIGNED_CONTEXT ( ( #200 ) ) GLOBAL_UNIT_ASSIGNED_CONTEXT ( ( #1000, #1101, #540 ) ) REPRESENTATION_CONTEXT ( 'NONE', 'WORKASPACE' ) );
#32 = VECTOR ( 'NONE', #815, 1000.000000000000000 ) ;
#33 = CARTESIAN_POINT ( 'NONE',  ( -7.500000000000002700, 1.199999999999999700, 7.200000000000001100 ) ) ;
#34 = COLOUR_RGB ( '',0.2509803921568627400, 0.2509803921568627400, 0.2509803921568627400 ) ;
#35 = EDGE_CURVE ( 'NONE', #1220, #164, #923, .T. ) ;
#36 = DIRECTION ( 'NONE',  ( 0.0000000000000000000, 0.0000000000000000000, 1.000000000000000000 ) ) ;
#37 = DIRECTION ( 'NONE',  ( 1.000000000000000000, 0.0000000000000000000, 0.0000000000000000000 ) ) ;
#38 = PRESENTATION_LAYER_ASSIGNMENT (  '', '', ( #555 ) ) ;
#39 = FILL_AREA_STYLE_COLOUR ( '', #81 ) ;
#40 =( LENGTH_UNIT ( ) NAMED_UNIT ( * ) SI_UNIT ( .MILLI., .METRE. ) );
#41 = ORIENTED_EDGE ( 'NONE', *, *, #1017, .F. ) ;
#42 =( NAMED_UNIT ( * ) SI_UNIT ( $, .STERADIAN. ) SOLID_ANGLE_UNIT ( ) );
#43 = CARTESIAN_POINT ( 'NONE',  ( 5.449999999999999300, 0.0000000000000000000, 1.800000000000000300 ) ) ;
#44 = DIRECTION ( 'NONE',  ( 0.0000000000000000000, 0.0000000000000000000, -1.000000000000000000 ) ) ;
#45 = SURFACE_SIDE_STYLE ('',( #988 ) ) ;
#46 = SURFACE_SIDE_STYLE ('',( #1148 ) ) ;
#47 = LINE ( 'NONE', #644, #665 ) ;
#48 = AXIS2_PLACEMENT_3D ( 'NONE', #213, #188, #858 ) ;
#49 = CARTESIAN_POINT ( 'NONE',  ( -5.210000000000000900, -4.599999999999999600, 1.800000000000000300 ) ) ;
#50 = FILL_AREA_STYLE_COLOUR ( '', #477 ) ;
#51 = AXIS2_PLACEMENT_3D ( 'NONE', #666, #486, #389 ) ;
#52 = ORIENTED_EDGE ( 'NONE', *, *, #963, .T. ) ;
#53 = STYLED_ITEM ( 'NONE', ( #233 ), #796 ) ;
#54 = EDGE_LOOP ( 'NONE', ( #1209, #667, #208, #617 ) ) ;
#55 = CARTESIAN_POINT ( 'NONE',  ( 0.3699999999999979400, -4.599999999999999600, 1.500000000000000000 ) ) ;
#56 = ORIENTED_EDGE ( 'NONE', *, *, #822, .F. ) ;
#57 = PLANE ( 'NONE',  #980 ) ;
#58 = CARTESIAN_POINT ( 'NONE',  ( 12.70000000000000100, -4.599999999999999600, 0.0000000000000000000 ) ) ;
#59 = FACE_OUTER_BOUND ( 'NONE', #148, .T. ) ;
#60 = VERTEX_POINT ( 'NONE', #1038 ) ;
#61 = EDGE_CURVE ( 'NONE', #13, #483, #183, .T. ) ;
#62 = DIRECTION ( 'NONE',  ( 0.0000000000000000000, -1.000000000000000000, 0.0000000000000000000 ) ) ;
#63 = VECTOR ( 'NONE', #728, 1000.000000000000000 ) ;
#64 = CARTESIAN_POINT ( 'NONE',  ( -7.250000000000001800, 0.0000000000000000000, 1.800000000000000300 ) ) ;
#65 = CIRCLE ( 'NONE', #107, 0.4000000000000001900 ) ;
#66 = DIRECTION ( 'NONE',  ( 0.0000000000000000000, -1.000000000000000000, 0.0000000000000000000 ) ) ;
#67 = ADVANCED_FACE ( 'NONE', ( #485 ), #673, .F. ) ;
#68 = SURFACE_STYLE_USAGE ( .BOTH. , #630 ) ;
#69 = FACE_OUTER_BOUND ( 'NONE', #388, .T. ) ;
#70 = CARTESIAN_POINT ( 'NONE',  ( -5.210000000000000900, -4.599999999999999600, 1.500000000000000000 ) ) ;
#71 = FILL_AREA_STYLE_COLOUR ( '', #16 ) ;
#72 = CARTESIAN_POINT ( 'NONE',  ( -7.900000000000002100, 1.199999999999999700, 7.150000000000000400 ) ) ;
#73 = ADVANCED_FACE ( 'NONE', ( #659 ), #765, .F. ) ;
#74 = EDGE_LOOP ( 'NONE', ( #266, #875, #552, #890 ) ) ;
#75 = EDGE_LOOP ( 'NONE', ( #259, #420, #812, #180 ) ) ;
#76 = CARTESIAN_POINT ( 'NONE',  ( 9.800000000000000700, -0.4999999999999977200, 0.0000000000000000000 ) ) ;
#77 = FILL_AREA_STYLE ('',( #71 ) ) ;
#78 = LINE ( 'NONE', #684, #995 ) ;
#79 = VERTEX_POINT ( 'NONE', #773 ) ;
#80 = COLOUR_RGB ( '',0.2509803921568627400, 0.2509803921568627400, 0.2509803921568627400 ) ;
#81 = COLOUR_RGB ( '',0.2509803921568627400, 0.2509803921568627400, 0.2509803921568627400 ) ;
#82 = ADVANCED_FACE ( 'NONE', ( #954 ), #786, .F. ) ;
#83 =( NAMED_UNIT ( * ) SI_UNIT ( $, .STERADIAN. ) SOLID_ANGLE_UNIT ( ) );
#84 = SURFACE_SIDE_STYLE ('',( #735 ) ) ;
#85 = SURFACE_SIDE_STYLE ('',( #882 ) ) ;
#86 = STYLED_ITEM ( 'NONE', ( #1056 ), #158 ) ;
#87 = ORIENTED_EDGE ( 'NONE', *, *, #766, .F. ) ;
#88 = ORIENTED_EDGE ( 'NONE', *, *, #590, .F. ) ;
#89 = SURFACE_STYLE_USAGE ( .BOTH. , #84 ) ;
#90 = CARTESIAN_POINT ( 'NONE',  ( -5.210000000000000900, -4.599999999999999600, 1.500000000000000000 ) ) ;
#91 = FACE_OUTER_BOUND ( 'NONE', #484, .T. ) ;
#92 = VERTEX_POINT ( 'NONE', #578 ) ;
#93 = CARTESIAN_POINT ( 'NONE',  ( -9.800000000000000700, 9.700000000000002800, 7.200000000000001100 ) ) ;
#94 = LINE ( 'NONE', #27, #699 ) ;
#95 = LINE ( 'NONE', #1037, #847 ) ;
#96 = LINE ( 'NONE', #312, #516 ) ;
#97 = STYLED_ITEM ( 'NONE', ( #959 ), #365 ) ;
#98 = ORIENTED_EDGE ( 'NONE', *, *, #590, .T. ) ;
#99 =( GEOMETRIC_REPRESENTATION_CONTEXT ( 3 ) GLOBAL_UNCERTAINTY_ASSIGNED_CONTEXT ( ( #120 ) ) GLOBAL_UNIT_ASSIGNED_CONTEXT ( ( #382, #174, #377 ) ) REPRESENTATION_CONTEXT ( 'NONE', 'WORKASPACE' ) );
#100 = ORIENTED_EDGE ( 'NONE', *, *, #985, .F. ) ;
#101 = VERTEX_POINT ( 'NONE', #697 ) ;
#102 = LINE ( 'NONE', #22, #1211 ) ;
#103 = CARTESIAN_POINT ( 'NONE',  ( -7.750000000000001800, 0.0000000000000000000, 1.500000000000000000 ) ) ;
#104 = VECTOR ( 'NONE', #360, 1000.000000000000000 ) ;
#105 = PRESENTATION_STYLE_ASSIGNMENT (( #1155 ) ) ;
#106 = PLANE ( 'NONE',  #48 ) ;
#107 = AXIS2_PLACEMENT_3D ( 'NONE', #33, #1164, #37 ) ;
#108 =( NAMED_UNIT ( * ) SI_UNIT ( $, .STERADIAN. ) SOLID_ANGLE_UNIT ( ) );
#109 = ORIENTED_EDGE ( 'NONE', *, *, #341, .F. ) ;
#110 = ORIENTED_EDGE ( 'NONE', *, *, #491, .F. ) ;
#111 = VERTEX_POINT ( 'NONE', #945 ) ;
#112 = AXIS2_PLACEMENT_3D ( 'NONE', #631, #731, #827 ) ;
#113 = VECTOR ( 'NONE', #1200, 1000.000000000000000 ) ;
#114 = LINE ( 'NONE', #894, #1122 ) ;
#115 = LINE ( 'NONE', #367, #297 ) ;
#116 = FACE_OUTER_BOUND ( 'NONE', #523, .T. ) ;
#117 = CARTESIAN_POINT ( 'NONE',  ( 4.949999999999999300, 0.0000000000000000000, 1.800000000000000300 ) ) ;
#118 = VECTOR ( 'NONE', #588, 1000.000000000000000 ) ;
#119 = EDGE_CURVE ( 'NONE', #1108, #829, #683, .T. ) ;
#120 = UNCERTAINTY_MEASURE_WITH_UNIT (LENGTH_MEASURE( 1.000000000000000100E-005 ), #382, 'distance_accuracy_value', 'NONE');
#121 = DIRECTION ( 'NONE',  ( 0.0000000000000000000, 1.000000000000000000, 0.0000000000000000000 ) ) ;
#122 = PRESENTATION_LAYER_ASSIGNMENT (  '', '', ( #86 ) ) ;
#123 = CARTESIAN_POINT ( 'NONE',  ( -4.710000000000002600, 0.0000000000000000000, 1.500000000000000000 ) ) ;
#124 = PRODUCT_DEFINITION_CONTEXT ( 'detailed design', #191, 'design' ) ;
#125 = CARTESIAN_POINT ( 'NONE',  ( -4.710000000000002600, -4.599999999999999600, 1.800000000000000300 ) ) ;
#126 = ORIENTED_EDGE ( 'NONE', *, *, #900, .T. ) ;
#127 = FILL_AREA_STYLE ('',( #1151 ) ) ;
#128 = PLANE ( 'NONE',  #573 ) ;
#129 = ORIENTED_EDGE ( 'NONE', *, *, #722, .F. ) ;
#130 = CARTESIAN_POINT ( 'NONE',  ( -7.500000000000002700, 1.199999999999999700, 7.200000000000001100 ) ) ;
#131 = LINE ( 'NONE', #621, #283 ) ;
#132 = CARTESIAN_POINT ( 'NONE',  ( 9.400000000000002100, -0.5000000000000000000, 0.0000000000000000000 ) ) ;
#133 = LINE ( 'NONE', #612, #1074 ) ;
#134 = AXIS2_PLACEMENT_3D ( 'NONE', #1167, #1082, #789 ) ;
#135 = PRESENTATION_STYLE_ASSIGNMENT (( #917 ) ) ;
#136 = DIRECTION ( 'NONE',  ( 0.0000000000000000000, 0.0000000000000000000, 1.000000000000000000 ) ) ;
#137 = VECTOR ( 'NONE', #1015, 1000.000000000000000 ) ;
#138 = CARTESIAN_POINT ( 'NONE',  ( -9.800000000000000700, 9.700000000000002800, 7.200000000000001100 ) ) ;
#139 = EDGE_CURVE ( 'NONE', #316, #1109, #406, .T. ) ;
#140 = DIRECTION ( 'NONE',  ( -1.000000000000000000, -0.0000000000000000000, -0.0000000000000000000 ) ) ;
#141 = SURFACE_STYLE_USAGE ( .BOTH. , #1078 ) ;
#142 = MECHANICAL_DESIGN_GEOMETRIC_PRESENTATION_REPRESENTATION (  '', ( #957 ), #99 ) ;
#143 = DIRECTION ( 'NONE',  ( -1.000000000000000000, 0.0000000000000000000, 0.0000000000000000000 ) ) ;
#144 = ORIENTED_EDGE ( 'NONE', *, *, #1094, .F. ) ;
#145 = ADVANCED_FACE ( 'NONE', ( #424 ), #862, .T. ) ;
#146 = ORIENTED_EDGE ( 'NONE', *, *, #609, .T. ) ;
#147 = DIRECTION ( 'NONE',  ( 0.0000000000000000000, 0.0000000000000000000, 1.000000000000000000 ) ) ;
#148 = EDGE_LOOP ( 'NONE', ( #830, #279, #887, #638 ) ) ;
#149 = LINE ( 'NONE', #363, #729 ) ;
#150 = MECHANICAL_DESIGN_GEOMETRIC_PRESENTATION_REPRESENTATION (  '', ( #458 ), #695 ) ;
#151 = VECTOR ( 'NONE', #140, 1000.000000000000000 ) ;
#152 = PLANE ( 'NONE',  #933 ) ;
#153 = VECTOR ( 'NONE', #209, 1000.000000000000000 ) ;
#154 = VECTOR ( 'NONE', #785, 1000.000000000000000 ) ;
#155 = SURFACE_STYLE_USAGE ( .BOTH. , #1183 ) ;
#156 = DIRECTION ( 'NONE',  ( 0.0000000000000000000, 0.0000000000000000000, -1.000000000000000000 ) ) ;
#157 = CARTESIAN_POINT ( 'NONE',  ( 9.400000000000002100, -0.5000000000000000000, 7.200000000000001100 ) ) ;
#158 = ADVANCED_FACE ( 'NONE', ( #1145 ), #243, .T. ) ;
#159 = CARTESIAN_POINT ( 'NONE',  ( 9.400000000000002100, 0.0000000000000000000, 7.200000000000001100 ) ) ;
#160 =( LENGTH_UNIT ( ) NAMED_UNIT ( * ) SI_UNIT ( .MILLI., .METRE. ) );
#161 = ORIENTED_EDGE ( 'NONE', *, *, #370, .F. ) ;
#162 = DIRECTION ( 'NONE',  ( 0.0000000000000000000, 1.000000000000000000, 0.0000000000000000000 ) ) ;
#163 = AXIS2_PLACEMENT_3D ( 'NONE', #528, #605, #1173 ) ;
#164 = VERTEX_POINT ( 'NONE', #138 ) ;
#165 = CARTESIAN_POINT ( 'NONE',  ( -0.1300000000000016400, 0.0000000000000000000, 1.800000000000000300 ) ) ;
#166 = ORIENTED_EDGE ( 'NONE', *, *, #561, .T. ) ;
#167 = FILL_AREA_STYLE ('',( #623 ) ) ;
#168 = ADVANCED_FACE ( 'NONE', ( #583 ), #702, .F. ) ;
#169 = EDGE_CURVE ( 'NONE', #581, #264, #500, .T. ) ;
#170 = SURFACE_SIDE_STYLE ('',( #201 ) ) ;
#171 = CYLINDRICAL_SURFACE ( 'NONE', #708, 0.4000000000000001900 ) ;
#172 = LINE ( 'NONE', #321, #1060 ) ;
#173 = DIRECTION ( 'NONE',  ( 1.000000000000000000, 0.0000000000000000000, 0.0000000000000000000 ) ) ;
#174 =( NAMED_UNIT ( * ) PLANE_ANGLE_UNIT ( ) SI_UNIT ( $, .RADIAN. ) );
#175 = ADVANCED_FACE ( 'NONE', ( #91 ), #1106, .F. ) ;
#176 = EDGE_CURVE ( 'NONE', #935, #472, #619, .T. ) ;
#177 =( LENGTH_UNIT ( ) NAMED_UNIT ( * ) SI_UNIT ( .MILLI., .METRE. ) );
#178 = CARTESIAN_POINT ( 'NONE',  ( 0.3699999999999979400, -4.599999999999999600, 1.800000000000000300 ) ) ;
#179 = EDGE_CURVE ( 'NONE', #1027, #111, #642, .T. ) ;
#180 = ORIENTED_EDGE ( 'NONE', *, *, #1140, .T. ) ;
#181 = ORIENTED_EDGE ( 'NONE', *, *, #898, .T. ) ;
#182 = SURFACE_STYLE_USAGE ( .BOTH. , #478 ) ;
#183 = LINE ( 'NONE', #307, #1144 ) ;
#184 = VECTOR ( 'NONE', #806, 1000.000000000000000 ) ;
#185 = CARTESIAN_POINT ( 'NONE',  ( 9.400000000000002100, -0.5000000000000000000, 0.0000000000000000000 ) ) ;
#186 = FILL_AREA_STYLE_COLOUR ( '', #34 ) ;
#187 = VECTOR ( 'NONE', #215, 1000.000000000000000 ) ;
#188 = DIRECTION ( 'NONE',  ( 0.0000000000000000000, -1.000000000000000000, 0.0000000000000000000 ) ) ;
#189 = AXIS2_PLACEMENT_3D ( 'NONE', #604, #616, #431 ) ;
#190 =( NAMED_UNIT ( * ) PLANE_ANGLE_UNIT ( ) SI_UNIT ( $, .RADIAN. ) );
#191 = APPLICATION_CONTEXT ( 'automotive_design' ) ;
#192 = CARTESIAN_POINT ( 'NONE',  ( 4.949999999999999300, -4.599999999999999600, 1.800000000000000300 ) ) ;
#193 = MECHANICAL_DESIGN_GEOMETRIC_PRESENTATION_REPRESENTATION (  '', ( #86 ), #750 ) ;
#194 = EDGE_LOOP ( 'NONE', ( #461, #1042, #727, #756 ) ) ;
#195 = DIRECTION ( 'NONE',  ( 1.000000000000000000, 0.0000000000000000000, 0.0000000000000000000 ) ) ;
#196 = ORIENTED_EDGE ( 'NONE', *, *, #169, .F. ) ;
#197 = ORIENTED_EDGE ( 'NONE', *, *, #900, .F. ) ;
#198 = EDGE_LOOP ( 'NONE', ( #1224, #1071, #110, #791 ) ) ;
#199 = CARTESIAN_POINT ( 'NONE',  ( 4.949999999999999300, -4.599999999999999600, 1.800000000000000300 ) ) ;
#200 = UNCERTAINTY_MEASURE_WITH_UNIT (LENGTH_MEASURE( 1.000000000000000100E-005 ), #1000, 'distance_accuracy_value', 'NONE');
#201 = SURFACE_STYLE_FILL_AREA ( #730 ) ;
#202 = FACE_OUTER_BOUND ( 'NONE', #422, .T. ) ;
#203 = LINE ( 'NONE', #662, #916 ) ;
#204 = CARTESIAN_POINT ( 'NONE',  ( -7.250000000000001800, 0.0000000000000000000, 1.500000000000000000 ) ) ;
#205 = MECHANICAL_DESIGN_GEOMETRIC_PRESENTATION_REPRESENTATION (  '', ( #522 ), #6 ) ;
#206 = DIRECTION ( 'NONE',  ( -1.000000000000000000, -0.0000000000000000000, -0.0000000000000000000 ) ) ;
#207 = VERTEX_POINT ( 'NONE', #663 ) ;
#208 = ORIENTED_EDGE ( 'NONE', *, *, #966, .F. ) ;
#209 = DIRECTION ( 'NONE',  ( 1.000000000000000000, -5.692061405548909300E-015, 0.0000000000000000000 ) ) ;
#210 = STYLED_ITEM ( 'NONE', ( #135 ), #633 ) ;
#211 = ORIENTED_EDGE ( 'NONE', *, *, #436, .T. ) ;
#212 = LINE ( 'NONE', #737, #770 ) ;
#213 = CARTESIAN_POINT ( 'NONE',  ( 7.620000000000000100, 0.0000000000000000000, 0.0000000000000000000 ) ) ;
#214 = PRESENTATION_STYLE_ASSIGNMENT (( #351 ) ) ;
#215 = DIRECTION ( 'NONE',  ( 0.0000000000000000000, -1.000000000000000000, 0.0000000000000000000 ) ) ;
#216 = CARTESIAN_POINT ( 'NONE',  ( -7.750000000000001800, 0.0000000000000000000, 1.800000000000000300 ) ) ;
#217 = PRESENTATION_STYLE_ASSIGNMENT (( #155 ) ) ;
#218 = LINE ( 'NONE', #49, #787 ) ;
#219 = CARTESIAN_POINT ( 'NONE',  ( -7.250000000000001800, -4.599999999999999600, 1.500000000000000000 ) ) ;
#220 = VECTOR ( 'NONE', #206, 1000.000000000000000 ) ;
#221 = FILL_AREA_STYLE_COLOUR ( '', #1079 ) ;
#222 = DIRECTION ( 'NONE',  ( 1.000000000000000000, 0.0000000000000000000, 0.0000000000000000000 ) ) ;
#223 = CARTESIAN_POINT ( 'NONE',  ( 4.949999999999999300, -4.599999999999999600, 1.800000000000000300 ) ) ;
#224 = EDGE_LOOP ( 'NONE', ( #520, #682, #56, #768 ) ) ;
#225 = CARTESIAN_POINT ( 'NONE',  ( -0.1300000000000016400, 0.0000000000000000000, 1.800000000000000300 ) ) ;
#226 = EDGE_LOOP ( 'NONE', ( #618, #1184, #508, #557 ) ) ;
#227 = CARTESIAN_POINT ( 'NONE',  ( -9.800000000000000700, -0.4999999999999977200, 7.200000000000001100 ) ) ;
#228 = DIRECTION ( 'NONE',  ( 0.0000000000000000000, -1.000000000000000000, 0.0000000000000000000 ) ) ;
#229 = ORIENTED_EDGE ( 'NONE', *, *, #35, .F. ) ;
#230 = CARTESIAN_POINT ( 'NONE',  ( -7.750000000000001800, -4.599999999999999600, 1.500000000000000000 ) ) ;
#231 = VECTOR ( 'NONE', #983, 1000.000000000000000 ) ;
#232 = DIRECTION ( 'NONE',  ( 0.0000000000000000000, 0.0000000000000000000, -1.000000000000000000 ) ) ;
#233 = PRESENTATION_STYLE_ASSIGNMENT (( #864 ) ) ;
#234 = DIRECTION ( 'NONE',  ( 0.0000000000000000000, 1.000000000000000000, 0.0000000000000000000 ) ) ;
#235 = EDGE_CURVE ( 'NONE', #741, #694, #744, .T. ) ;
#236 = DIRECTION ( 'NONE',  ( 1.000000000000000000, 0.0000000000000000000, 0.0000000000000000000 ) ) ;
#237 = AXIS2_PLACEMENT_3D ( 'NONE', #354, #66, #462 ) ;
#238 = CARTESIAN_POINT ( 'NONE',  ( 9.800000000000000700, 9.700000000000002800, 0.0000000000000000000 ) ) ;
#239 = DIRECTION ( 'NONE',  ( -1.000000000000000000, 0.0000000000000000000, 0.0000000000000000000 ) ) ;
#240 = AXIS2_PLACEMENT_3D ( 'NONE', #356, #824, #610 ) ;
#241 = PLANE ( 'NONE',  #315 ) ;
#242 = EDGE_CURVE ( 'NONE', #656, #601, #716, .T. ) ;
#243 = PLANE ( 'NONE',  #927 ) ;
#244 = DIRECTION ( 'NONE',  ( -0.0000000000000000000, -0.0000000000000000000, -1.000000000000000000 ) ) ;
#245 = ORIENTED_EDGE ( 'NONE', *, *, #766, .T. ) ;
#246 = EDGE_CURVE ( 'NONE', #306, #79, #131, .T. ) ;
#247 = ORIENTED_EDGE ( 'NONE', *, *, #480, .T. ) ;
#248 = SURFACE_STYLE_FILL_AREA ( #127 ) ;
#249 = LINE ( 'NONE', #620, #346 ) ;
#250 = CARTESIAN_POINT ( 'NONE',  ( -0.1300000000000016400, -4.599999999999999600, 1.500000000000000000 ) ) ;
#251 = DIRECTION ( 'NONE',  ( 0.0000000000000000000, 0.0000000000000000000, 1.000000000000000000 ) ) ;
#252 = DIRECTION ( 'NONE',  ( 0.0000000000000000000, 0.0000000000000000000, 1.000000000000000000 ) ) ;
#253 = EDGE_CURVE ( 'NONE', #306, #404, #212, .T. ) ;
#254 = SURFACE_STYLE_USAGE ( .BOTH. , #170 ) ;
#255 = CARTESIAN_POINT ( 'NONE',  ( 9.400000000000002100, 0.0000000000000000000, 0.0000000000000000000 ) ) ;
#256 = PLANE ( 'NONE',  #1090 ) ;
#257 = MECHANICAL_DESIGN_GEOMETRIC_PRESENTATION_REPRESENTATION (  '', ( #1046 ), #29 ) ;
#258 = ORIENTED_EDGE ( 'NONE', *, *, #179, .T. ) ;
#259 = ORIENTED_EDGE ( 'NONE', *, *, #253, .T. ) ;
#260 = DIRECTION ( 'NONE',  ( 1.000000000000000000, 0.0000000000000000000, 0.0000000000000000000 ) ) ;
#261 = ORIENTED_EDGE ( 'NONE', *, *, #235, .F. ) ;
#262 = ADVANCED_FACE ( 'NONE', ( #1174 ), #352, .F. ) ;
#263 = EDGE_CURVE ( 'NONE', #455, #101, #925, .T. ) ;
#264 = VERTEX_POINT ( 'NONE', #255 ) ;
#265 = SURFACE_SIDE_STYLE ('',( #285 ) ) ;
#266 = ORIENTED_EDGE ( 'NONE', *, *, #433, .T. ) ;
#267 = EDGE_CURVE ( 'NONE', #853, #390, #832, .T. ) ;
#268 = LINE ( 'NONE', #519, #1112 ) ;
#269 =( NAMED_UNIT ( * ) SI_UNIT ( $, .STERADIAN. ) SOLID_ANGLE_UNIT ( ) );
#270 = VECTOR ( 'NONE', #587, 1000.000000000000000 ) ;
#271 = CARTESIAN_POINT ( 'NONE',  ( 9.400000000000002100, -0.5000000000000000000, 7.200000000000001100 ) ) ;
#272 = ADVANCED_FACE ( 'NONE', ( #842 ), #57, .F. ) ;
#273 = PLANE ( 'NONE',  #189 ) ;
#274 = VECTOR ( 'NONE', #932, 1000.000000000000000 ) ;
#275 = CARTESIAN_POINT ( 'NONE',  ( -4.710000000000002600, -4.599999999999999600, 1.500000000000000000 ) ) ;
#276 = CARTESIAN_POINT ( 'NONE',  ( 9.400000000000002100, -0.5000000000000000000, 7.200000000000001100 ) ) ;
#277 = DIRECTION ( 'NONE',  ( 1.000000000000000000, 0.0000000000000000000, 0.0000000000000000000 ) ) ;
#278 = ADVANCED_FACE ( 'NONE', ( #592 ), #475, .F. ) ;
#279 = ORIENTED_EDGE ( 'NONE', *, *, #1131, .F. ) ;
#280 = PRESENTATION_LAYER_ASSIGNMENT (  '', '', ( #1080 ) ) ;
#281 = CLOSED_SHELL ( 'NONE', ( #918, #550, #365, #521, #1113, #637, #732, #355, #175, #913, #158, #649, #1005 ) ) ;
#282 = ORIENTED_EDGE ( 'NONE', *, *, #1195, .T. ) ;
#283 = VECTOR ( 'NONE', #441, 1000.000000000000000 ) ;
#284 = CARTESIAN_POINT ( 'NONE',  ( 0.3699999999999979400, -4.599999999999999600, 1.800000000000000300 ) ) ;
#285 = SURFACE_STYLE_FILL_AREA ( #804 ) ;
#286 = MECHANICAL_DESIGN_GEOMETRIC_PRESENTATION_REPRESENTATION (  '', ( #1066 ), #1149 ) ;
#287 = UNCERTAINTY_MEASURE_WITH_UNIT (LENGTH_MEASURE( 1.000000000000000100E-005 ), #1067, 'distance_accuracy_value', 'NONE');
#288 = EDGE_CURVE ( 'NONE', #1207, #582, #1073, .T. ) ;
#289 = CARTESIAN_POINT ( 'NONE',  ( -5.210000000000000900, 0.0000000000000000000, 1.800000000000000300 ) ) ;
#290 = ORIENTED_EDGE ( 'NONE', *, *, #1099, .T. ) ;
#291 = CARTESIAN_POINT ( 'NONE',  ( -5.210000000000000900, -4.599999999999999600, 1.500000000000000000 ) ) ;
#292 = EDGE_LOOP ( 'NONE', ( #745, #343, #542, #417 ) ) ;
#293 = CARTESIAN_POINT ( 'NONE',  ( -0.1300000000000016400, 0.0000000000000000000, 1.500000000000000000 ) ) ;
#294 = ORIENTED_EDGE ( 'NONE', *, *, #498, .T. ) ;
#295 = LINE ( 'NONE', #1011, #541 ) ;
#296 = EDGE_LOOP ( 'NONE', ( #769, #905, #1117, #556 ) ) ;
#297 = VECTOR ( 'NONE', #544, 1000.000000000000000 ) ;
#298 = CARTESIAN_POINT ( 'NONE',  ( -9.400000000000002100, -0.5000000000000000000, 7.200000000000001100 ) ) ;
#299 = VECTOR ( 'NONE', #700, 1000.000000000000000 ) ;
#300 = VECTOR ( 'NONE', #1202, 1000.000000000000000 ) ;
#301 = PRESENTATION_LAYER_ASSIGNMENT (  '', '', ( #53 ) ) ;
#302 = CARTESIAN_POINT ( 'NONE',  ( -9.800000000000000700, 9.700000000000002800, 7.200000000000001100 ) ) ;
#303 = EDGE_CURVE ( 'NONE', #390, #79, #524, .T. ) ;
#304 = CARTESIAN_POINT ( 'NONE',  ( 0.3699999999999979400, 0.0000000000000000000, 1.800000000000000300 ) ) ;
#305 = STYLED_ITEM ( 'NONE', ( #719 ), #664 ) ;
#306 = VERTEX_POINT ( 'NONE', #55 ) ;
#307 = CARTESIAN_POINT ( 'NONE',  ( -7.750000000000001800, 0.0000000000000000000, 1.500000000000000000 ) ) ;
#308 = ORIENTED_EDGE ( 'NONE', *, *, #834, .T. ) ;
#309 = VERTEX_POINT ( 'NONE', #451 ) ;
#310 = DIRECTION ( 'NONE',  ( 1.000000000000000000, 0.0000000000000000000, 0.0000000000000000000 ) ) ;
#311 = CARTESIAN_POINT ( 'NONE',  ( -9.400000000000002100, -0.5000000000000000000, 0.0000000000000000000 ) ) ;
#312 = CARTESIAN_POINT ( 'NONE',  ( 5.449999999999999300, -4.599999999999999600, 1.800000000000000300 ) ) ;
#313 = DIRECTION ( 'NONE',  ( 0.0000000000000000000, 0.0000000000000000000, -1.000000000000000000 ) ) ;
#314 = DIRECTION ( 'NONE',  ( -1.000000000000000000, -0.0000000000000000000, -0.0000000000000000000 ) ) ;
#315 = AXIS2_PLACEMENT_3D ( 'NONE', #713, #602, #803 ) ;
#316 = VERTEX_POINT ( 'NONE', #64 ) ;
#317 = ORIENTED_EDGE ( 'NONE', *, *, #940, .F. ) ;
#318 = AXIS2_PLACEMENT_3D ( 'NONE', #1188, #1182, #444 ) ;
#319 = LINE ( 'NONE', #805, #782 ) ;
#320 = ORIENTED_EDGE ( 'NONE', *, *, #512, .F. ) ;
#321 = CARTESIAN_POINT ( 'NONE',  ( -9.800000000000000700, 9.700000000000002800, 7.200000000000001100 ) ) ;
#322 = FILL_AREA_STYLE ('',( #221 ) ) ;
#323 = EDGE_CURVE ( 'NONE', #582, #1207, #26, .T. ) ;
#324 = CIRCLE ( 'NONE', #468, 0.4000000000000001900 ) ;
#325 = CARTESIAN_POINT ( 'NONE',  ( -0.1300000000000016400, -4.599999999999999600, 1.800000000000000300 ) ) ;
#326 = DIRECTION ( 'NONE',  ( -0.0000000000000000000, -0.0000000000000000000, -1.000000000000000000 ) ) ;
#327 = UNCERTAINTY_MEASURE_WITH_UNIT (LENGTH_MEASURE( 1.000000000000000100E-005 ), #405, 'distance_accuracy_value', 'NONE');
#328 = VERTEX_POINT ( 'NONE', #157 ) ;
#329 = DIRECTION ( 'NONE',  ( 0.0000000000000000000, 1.000000000000000000, 0.0000000000000000000 ) ) ;
#330 =( LENGTH_UNIT ( ) NAMED_UNIT ( * ) SI_UNIT ( .MILLI., .METRE. ) );
#331 = VERTEX_POINT ( 'NONE', #1004 ) ;
#332 = AXIS2_PLACEMENT_3D ( 'NONE', #703, #36, #792 ) ;
#333 = FILL_AREA_STYLE_COLOUR ( '', #915 ) ;
#334 =( NAMED_UNIT ( * ) PLANE_ANGLE_UNIT ( ) SI_UNIT ( $, .RADIAN. ) );
#335 = FILL_AREA_STYLE ('',( #333 ) ) ;
#336 =( GEOMETRIC_REPRESENTATION_CONTEXT ( 3 ) GLOBAL_UNCERTAINTY_ASSIGNED_CONTEXT ( ( #903 ) ) GLOBAL_UNIT_ASSIGNED_CONTEXT ( ( #177, #452, #1104 ) ) REPRESENTATION_CONTEXT ( 'NONE', 'WORKASPACE' ) );
#337 = DIRECTION ( 'NONE',  ( 0.0000000000000000000, 1.000000000000000000, 0.0000000000000000000 ) ) ;
#338 = PLANE ( 'NONE',  #134 ) ;
#339 = CARTESIAN_POINT ( 'NONE',  ( -7.500000000000002700, 1.199999999999999700, 7.150000000000000400 ) ) ;
#340 = CARTESIAN_POINT ( 'NONE',  ( -0.1300000000000016400, -4.599999999999999600, 1.500000000000000000 ) ) ;
#341 = EDGE_CURVE ( 'NONE', #783, #689, #319, .T. ) ;
#342 = CARTESIAN_POINT ( 'NONE',  ( 4.949999999999999300, 0.0000000000000000000, 1.500000000000000000 ) ) ;
#343 = ORIENTED_EDGE ( 'NONE', *, *, #1157, .F. ) ;
#344 = EDGE_CURVE ( 'NONE', #793, #331, #295, .T. ) ;
#345 = VECTOR ( 'NONE', #314, 1000.000000000000000 ) ;
#346 = VECTOR ( 'NONE', #162, 1000.000000000000000 ) ;
#347 = CARTESIAN_POINT ( 'NONE',  ( 9.800000000000000700, 9.700000000000002800, 7.200000000000001100 ) ) ;
#348 = LINE ( 'NONE', #219, #784 ) ;
#349 = FACE_OUTER_BOUND ( 'NONE', #74, .T. ) ;
#350 =( NAMED_UNIT ( * ) PLANE_ANGLE_UNIT ( ) SI_UNIT ( $, .RADIAN. ) );
#351 = SURFACE_STYLE_USAGE ( .BOTH. , #265 ) ;
#352 = PLANE ( 'NONE',  #1051 ) ;
#353 = CARTESIAN_POINT ( 'NONE',  ( 5.449999999999999300, -4.599999999999999600, 1.800000000000000300 ) ) ;
#354 = CARTESIAN_POINT ( 'NONE',  ( 0.0000000000000000000, -4.599999999999999600, 0.0000000000000000000 ) ) ;
#355 = ADVANCED_FACE ( 'NONE', ( #59 ), #1029, .F. ) ;
#356 = CARTESIAN_POINT ( 'NONE',  ( 0.0000000000000000000, 0.0000000000000000000, 0.0000000000000000000 ) ) ;
#357 = MECHANICAL_DESIGN_GEOMETRIC_PRESENTATION_REPRESENTATION (  '', ( #53 ), #1210 ) ;
#358 = DIRECTION ( 'NONE',  ( 1.000000000000000000, 0.0000000000000000000, 0.0000000000000000000 ) ) ;
#359 = ORIENTED_EDGE ( 'NONE', *, *, #746, .F. ) ;
#360 = DIRECTION ( 'NONE',  ( 0.0000000000000000000, 0.0000000000000000000, -1.000000000000000000 ) ) ;
#361 = EDGE_CURVE ( 'NONE', #404, #709, #975, .T. ) ;
#362 = ORIENTED_EDGE ( 'NONE', *, *, #176, .F. ) ;
#363 = CARTESIAN_POINT ( 'NONE',  ( 4.949999999999999300, -4.599999999999999600, 1.500000000000000000 ) ) ;
#364 = ORIENTED_EDGE ( 'NONE', *, *, #661, .F. ) ;
#365 = ADVANCED_FACE ( 'NONE', ( #929 ), #574, .F. ) ;
#366 = MECHANICAL_DESIGN_GEOMETRIC_PRESENTATION_REPRESENTATION (  '', ( #210 ), #336 ) ;
#367 = CARTESIAN_POINT ( 'NONE',  ( -7.750000000000001800, -4.599999999999999600, 1.800000000000000300 ) ) ;
#368 = CARTESIAN_POINT ( 'NONE',  ( -7.100000000000002300, 1.199999999999999700, 7.150000000000000400 ) ) ;
#369 = VECTOR ( 'NONE', #820, 1000.000000000000000 ) ;
#370 = EDGE_CURVE ( 'NONE', #264, #677, #686, .T. ) ;
#371 = DIRECTION ( 'NONE',  ( 1.000000000000000000, 0.0000000000000000000, 0.0000000000000000000 ) ) ;
#372 = DIRECTION ( 'NONE',  ( 0.0000000000000000000, 0.0000000000000000000, 1.000000000000000000 ) ) ;
#373 = ORIENTED_EDGE ( 'NONE', *, *, #323, .F. ) ;
#374 = ORIENTED_EDGE ( 'NONE', *, *, #288, .T. ) ;
#375 = EDGE_LOOP ( 'NONE', ( #98, #10, #144, #1223 ) ) ;
#376 = CARTESIAN_POINT ( 'NONE',  ( -9.400000000000002100, 0.0000000000000000000, 7.200000000000001100 ) ) ;
#377 =( NAMED_UNIT ( * ) SI_UNIT ( $, .STERADIAN. ) SOLID_ANGLE_UNIT ( ) );
#378 = PRESENTATION_STYLE_ASSIGNMENT (( #715 ) ) ;
#379 = PRESENTATION_LAYER_ASSIGNMENT (  '', '', ( #957 ) ) ;
#380 = STYLED_ITEM ( 'NONE', ( #214 ), #1158 ) ;
#381 = FACE_OUTER_BOUND ( 'NONE', #967, .T. ) ;
#382 =( LENGTH_UNIT ( ) NAMED_UNIT ( * ) SI_UNIT ( .MILLI., .METRE. ) );
#383 = UNCERTAINTY_MEASURE_WITH_UNIT (LENGTH_MEASURE( 1.000000000000000100E-005 ), #501, 'distance_accuracy_value', 'NONE');
#384 = LINE ( 'NONE', #400, #1036 ) ;
#385 = EDGE_CURVE ( 'NONE', #694, #1172, #414, .T. ) ;
#386 = DIRECTION ( 'NONE',  ( 0.0000000000000000000, 0.0000000000000000000, -1.000000000000000000 ) ) ;
#387 = AXIS2_PLACEMENT_3D ( 'NONE', #430, #986, #252 ) ;
#388 = EDGE_LOOP ( 'NONE', ( #948, #1219, #1070, #1161 ) ) ;
#389 = DIRECTION ( 'NONE',  ( 0.0000000000000000000, 0.0000000000000000000, 1.000000000000000000 ) ) ;
#390 = VERTEX_POINT ( 'NONE', #293 ) ;
#391 = ORIENTED_EDGE ( 'NONE', *, *, #1218, .F. ) ;
#392 = COLOUR_RGB ( '',0.2509803921568627400, 0.2509803921568627400, 0.2509803921568627400 ) ;
#393 = CLOSED_SHELL ( 'NONE', ( #467, #1098, #67, #558, #1191, #739 ) ) ;
#394 = LINE ( 'NONE', #547, #1150 ) ;
#395 = SURFACE_STYLE_USAGE ( .BOTH. , #1045 ) ;
#396 = VECTOR ( 'NONE', #329, 1000.000000000000000 ) ;
#397 = COLOUR_RGB ( '',1.000000000000000000, 1.000000000000000000, 1.000000000000000000 ) ;
#398 = AXIS2_PLACEMENT_3D ( 'NONE', #566, #1213, #372 ) ;
#399 = CARTESIAN_POINT ( 'NONE',  ( 0.3699999999999979400, 0.0000000000000000000, 1.800000000000000300 ) ) ;
#400 = CARTESIAN_POINT ( 'NONE',  ( -7.100000000000002300, 1.199999999999999700, 7.150000000000000400 ) ) ;
#401 =( GEOMETRIC_REPRESENTATION_CONTEXT ( 3 ) GLOBAL_UNCERTAINTY_ASSIGNED_CONTEXT ( ( #752 ) ) GLOBAL_UNIT_ASSIGNED_CONTEXT ( ( #836, #652, #675 ) ) REPRESENTATION_CONTEXT ( 'NONE', 'WORKASPACE' ) );
#402 = EDGE_LOOP ( 'NONE', ( #362, #499, #161, #1028, #88, #1142, #109, #863 ) ) ;
#403 = UNCERTAINTY_MEASURE_WITH_UNIT (LENGTH_MEASURE( 1.000000000000000100E-005 ), #330, 'distance_accuracy_value', 'NONE');
#404 = VERTEX_POINT ( 'NONE', #178 ) ;
#405 =( LENGTH_UNIT ( ) NAMED_UNIT ( * ) SI_UNIT ( .MILLI., .METRE. ) );
#406 = LINE ( 'NONE', #216, #345 ) ;
#407 = EDGE_LOOP ( 'NONE', ( #679, #888 ) ) ;
#408 = EDGE_CURVE ( 'NONE', #709, #853, #848, .T. ) ;
#409 = LINE ( 'NONE', #342, #1092 ) ;
#410 = PLANE ( 'NONE',  #421 ) ;
#411 = EDGE_CURVE ( 'NONE', #404, #714, #899, .T. ) ;
#412 = LINE ( 'NONE', #311, #153 ) ;
#413 = PLANE ( 'NONE',  #814 ) ;
#414 = LINE ( 'NONE', #289, #447 ) ;
#415 = DIRECTION ( 'NONE',  ( 0.0000000000000000000, 0.0000000000000000000, -1.000000000000000000 ) ) ;
#416 = CARTESIAN_POINT ( 'NONE',  ( 2.540000000000000000, -4.599999999999999600, 0.0000000000000000000 ) ) ;
#417 = ORIENTED_EDGE ( 'NONE', *, *, #119, .F. ) ;
#418 = DIRECTION ( 'NONE',  ( -1.000000000000000000, -0.0000000000000000000, -0.0000000000000000000 ) ) ;
#419 = MANIFOLD_SOLID_BREP ( 'LPattern2[2]', #393 ) ;
#420 = ORIENTED_EDGE ( 'NONE', *, *, #411, .T. ) ;
#421 = AXIS2_PLACEMENT_3D ( 'NONE', #423, #222, #415 ) ;
#422 = EDGE_LOOP ( 'NONE', ( #655, #308, #950, #1160 ) ) ;
#423 = CARTESIAN_POINT ( 'NONE',  ( -5.210000000000000900, -4.599999999999999600, 1.800000000000000300 ) ) ;
#424 = FACE_OUTER_BOUND ( 'NONE', #226, .T. ) ;
#425 = EDGE_CURVE ( 'NONE', #8, #1053, #1154, .T. ) ;
#426 = DIRECTION ( 'NONE',  ( 0.0000000000000000000, 1.000000000000000000, 0.0000000000000000000 ) ) ;
#427 = LINE ( 'NONE', #912, #104 ) ;
#428 = CARTESIAN_POINT ( 'NONE',  ( -7.750000000000001800, -4.599999999999999600, 1.800000000000000300 ) ) ;
#429 = PRESENTATION_LAYER_ASSIGNMENT (  '', '', ( #473 ) ) ;
#430 = CARTESIAN_POINT ( 'NONE',  ( 5.449999999999999300, -4.599999999999999600, 1.800000000000000300 ) ) ;
#431 = DIRECTION ( 'NONE',  ( -1.000000000000000000, 0.0000000000000000000, 0.0000000000000000000 ) ) ;
#432 = PLANE ( 'NONE',  #1129 ) ;
#433 = EDGE_CURVE ( 'NONE', #79, #709, #1100, .T. ) ;
#434 = CARTESIAN_POINT ( 'NONE',  ( -9.400000000000002100, 0.0000000000000000000, 7.200000000000001100 ) ) ;
#435 = VERTEX_POINT ( 'NONE', #647 ) ;
#436 = EDGE_CURVE ( 'NONE', #582, #936, #384, .T. ) ;
#437 = EDGE_LOOP ( 'NONE', ( #1187, #1107, #921, #1085 ) ) ;
#438 = VECTOR ( 'NONE', #493, 1000.000000000000000 ) ;
#439 =( NAMED_UNIT ( * ) PLANE_ANGLE_UNIT ( ) SI_UNIT ( $, .RADIAN. ) );
#440 = VECTOR ( 'NONE', #1003, 1000.000000000000000 ) ;
#441 = DIRECTION ( 'NONE',  ( 0.0000000000000000000, 1.000000000000000000, 0.0000000000000000000 ) ) ;
#442 = DIRECTION ( 'NONE',  ( 1.000000000000000000, 0.0000000000000000000, 0.0000000000000000000 ) ) ;
#443 = SURFACE_STYLE_FILL_AREA ( #9 ) ;
#444 = DIRECTION ( 'NONE',  ( 0.0000000000000000000, 0.0000000000000000000, -1.000000000000000000 ) ) ;
#445 = FACE_OUTER_BOUND ( 'NONE', #1018, .T. ) ;
#446 = CARTESIAN_POINT ( 'NONE',  ( 4.949999999999999300, -4.599999999999999600, 1.500000000000000000 ) ) ;
#447 = VECTOR ( 'NONE', #1116, 1000.000000000000000 ) ;
#448 =( GEOMETRIC_REPRESENTATION_CONTEXT ( 3 ) GLOBAL_UNCERTAINTY_ASSIGNED_CONTEXT ( ( #813 ) ) GLOBAL_UNIT_ASSIGNED_CONTEXT ( ( #901, #350, #997 ) ) REPRESENTATION_CONTEXT ( 'NONE', 'WORKASPACE' ) );
#449 = PLANE ( 'NONE',  #318 ) ;
#450 = MECHANICAL_DESIGN_GEOMETRIC_PRESENTATION_REPRESENTATION (  '', ( #380 ), #1189 ) ;
#451 = CARTESIAN_POINT ( 'NONE',  ( -7.250000000000001800, -4.599999999999999600, 1.800000000000000300 ) ) ;
#452 =( NAMED_UNIT ( * ) PLANE_ANGLE_UNIT ( ) SI_UNIT ( $, .RADIAN. ) );
#453 = EDGE_CURVE ( 'NONE', #539, #1108, #96, .T. ) ;
#454 = DIRECTION ( 'NONE',  ( -0.0000000000000000000, -0.0000000000000000000, -1.000000000000000000 ) ) ;
#455 = VERTEX_POINT ( 'NONE', #199 ) ;
#456 = ORIENTED_EDGE ( 'NONE', *, *, #235, .T. ) ;
#457 = ADVANCED_FACE ( 'NONE', ( #69 ), #1221, .F. ) ;
#458 = STYLED_ITEM ( 'NONE', ( #1110 ), #175 ) ;
#459 = ORIENTED_EDGE ( 'NONE', *, *, #1049, .T. ) ;
#460 = DIRECTION ( 'NONE',  ( 0.0000000000000000000, 0.0000000000000000000, 1.000000000000000000 ) ) ;
#461 = ORIENTED_EDGE ( 'NONE', *, *, #433, .F. ) ;
#462 = DIRECTION ( 'NONE',  ( 0.0000000000000000000, 0.0000000000000000000, -1.000000000000000000 ) ) ;
#463 =( NAMED_UNIT ( * ) PLANE_ANGLE_UNIT ( ) SI_UNIT ( $, .RADIAN. ) );
#464 = PRODUCT_DEFINITION ( 'UNKNOWN', '', #674, #124 ) ;
#465 = VECTOR ( 'NONE', #706, 1000.000000000000000 ) ;
#466 = LINE ( 'NONE', #1194, #369 ) ;
#467 = ADVANCED_FACE ( 'NONE', ( #349 ), #502, .F. ) ;
#468 = AXIS2_PLACEMENT_3D ( 'NONE', #130, #790, #236 ) ;
#469 = ORIENTED_EDGE ( 'NONE', *, *, #491, .T. ) ;
#470 = CARTESIAN_POINT ( 'NONE',  ( -7.500000000000002700, 1.199999999999999700, 7.150000000000000400 ) ) ;
#471 = VERTEX_POINT ( 'NONE', #489 ) ;
#472 = VERTEX_POINT ( 'NONE', #1034 ) ;
#473 = STYLED_ITEM ( 'NONE', ( #1197 ), #732 ) ;
#474 = VECTOR ( 'NONE', #1214, 1000.000000000000000 ) ;
#475 = PLANE ( 'NONE',  #795 ) ;
#476 = ORIENTED_EDGE ( 'NONE', *, *, #242, .F. ) ;
#477 = COLOUR_RGB ( '',1.000000000000000000, 1.000000000000000000, 1.000000000000000000 ) ;
#478 = SURFACE_SIDE_STYLE ('',( #443 ) ) ;
#479 = LINE ( 'NONE', #1013, #63 ) ;
#480 = EDGE_CURVE ( 'NONE', #328, #979, #95, .T. ) ;
#481 = CARTESIAN_POINT ( 'NONE',  ( 9.400000000000002100, 0.0000000000000000000, 0.0000000000000000000 ) ) ;
#482 = DIRECTION ( 'NONE',  ( 0.0000000000000000000, -1.000000000000000000, 0.0000000000000000000 ) ) ;
#483 = VERTEX_POINT ( 'NONE', #204 ) ;
#484 = EDGE_LOOP ( 'NONE', ( #166, #364, #7, #1132 ) ) ;
#485 = FACE_OUTER_BOUND ( 'NONE', #965, .T. ) ;
#486 = DIRECTION ( 'NONE',  ( -1.000000000000000000, 0.0000000000000000000, 0.0000000000000000000 ) ) ;
#487 = LINE ( 'NONE', #271, #594 ) ;
#488 = FACE_OUTER_BOUND ( 'NONE', #978, .T. ) ;
#489 = CARTESIAN_POINT ( 'NONE',  ( -0.1300000000000016400, -4.599999999999999600, 1.500000000000000000 ) ) ;
#490 = DIRECTION ( 'NONE',  ( 0.0000000000000000000, 0.0000000000000000000, -1.000000000000000000 ) ) ;
#491 = EDGE_CURVE ( 'NONE', #207, #8, #607, .T. ) ;
#492 = PRESENTATION_LAYER_ASSIGNMENT (  '', '', ( #97 ) ) ;
#493 = DIRECTION ( 'NONE',  ( -1.000000000000000000, -0.0000000000000000000, -0.0000000000000000000 ) ) ;
#494 = ORIENTED_EDGE ( 'NONE', *, *, #61, .T. ) ;
#495 = PLANE ( 'NONE',  #398 ) ;
#496 = ORIENTED_EDGE ( 'NONE', *, *, #860, .T. ) ;
#497 = DIRECTION ( 'NONE',  ( 0.0000000000000000000, 1.000000000000000000, 0.0000000000000000000 ) ) ;
#498 = EDGE_CURVE ( 'NONE', #714, #853, #1021, .T. ) ;
#499 = ORIENTED_EDGE ( 'NONE', *, *, #561, .F. ) ;
#500 = LINE ( 'NONE', #835, #910 ) ;
#501 =( LENGTH_UNIT ( ) NAMED_UNIT ( * ) SI_UNIT ( .MILLI., .METRE. ) );
#502 = PLANE ( 'NONE',  #51 ) ;
#503 = CARTESIAN_POINT ( 'NONE',  ( -9.400000000000002100, 0.0000000000000000000, 7.200000000000001100 ) ) ;
#504 = MECHANICAL_DESIGN_GEOMETRIC_PRESENTATION_REPRESENTATION (  '', ( #672 ), #448 ) ;
#505 =( GEOMETRIC_REPRESENTATION_CONTEXT ( 3 ) GLOBAL_UNCERTAINTY_ASSIGNED_CONTEXT ( ( #1026 ) ) GLOBAL_UNIT_ASSIGNED_CONTEXT ( ( #987, #439, #531 ) ) REPRESENTATION_CONTEXT ( 'NONE', 'WORKASPACE' ) );
#506 = ORIENTED_EDGE ( 'NONE', *, *, #576, .T. ) ;
#507 = PLANE ( 'NONE',  #818 ) ;
#508 = ORIENTED_EDGE ( 'NONE', *, *, #562, .T. ) ;
#509 = CARTESIAN_POINT ( 'NONE',  ( 9.400000000000002100, 0.0000000000000000000, 7.200000000000001100 ) ) ;
#510 = ORIENTED_EDGE ( 'NONE', *, *, #966, .T. ) ;
#511 = EDGE_CURVE ( 'NONE', #207, #689, #1097, .T. ) ;
#512 = EDGE_CURVE ( 'NONE', #714, #471, #1002, .T. ) ;
#513 = LINE ( 'NONE', #1147, #299 ) ;
#514 = DIRECTION ( 'NONE',  ( 0.0000000000000000000, 0.0000000000000000000, -1.000000000000000000 ) ) ;
#515 = VECTOR ( 'NONE', #337, 1000.000000000000000 ) ;
#516 = VECTOR ( 'NONE', #670, 1000.000000000000000 ) ;
#517 = CARTESIAN_POINT ( 'NONE',  ( -9.400000000000002100, -0.5000000000000000000, 0.0000000000000000000 ) ) ;
#518 = SURFACE_STYLE_USAGE ( .BOTH. , #45 ) ;
#519 = CARTESIAN_POINT ( 'NONE',  ( 9.800000000000000700, 9.700000000000002800, 7.200000000000001100 ) ) ;
#520 = ORIENTED_EDGE ( 'NONE', *, *, #963, .F. ) ;
#521 = ADVANCED_FACE ( 'NONE', ( #685 ), #876, .F. ) ;
#522 = STYLED_ITEM ( 'NONE', ( #748 ), #913 ) ;
#523 = EDGE_LOOP ( 'NONE', ( #859, #510, #1133, #797 ) ) ;
#524 = LINE ( 'NONE', #1190, #12 ) ;
#525 = FACE_OUTER_BOUND ( 'NONE', #292, .T. ) ;
#526 = FILL_AREA_STYLE ('',( #39 ) ) ;
#527 = VECTOR ( 'NONE', #232, 1000.000000000000000 ) ;
#528 = CARTESIAN_POINT ( 'NONE',  ( 9.800000000000000700, 9.700000000000002800, 7.200000000000001100 ) ) ;
#529 = MECHANICAL_DESIGN_GEOMETRIC_PRESENTATION_REPRESENTATION (  '', ( #473 ), #1152 ) ;
#530 = ADVANCED_FACE ( 'NONE', ( #445 ), #413, .F. ) ;
#531 =( NAMED_UNIT ( * ) SI_UNIT ( $, .STERADIAN. ) SOLID_ANGLE_UNIT ( ) );
#532 = DIRECTION ( 'NONE',  ( 1.000000000000000000, 0.0000000000000000000, 0.0000000000000000000 ) ) ;
#533 = EDGE_CURVE ( 'NONE', #101, #794, #597, .T. ) ;
#534 = DIRECTION ( 'NONE',  ( 5.692061405548908500E-015, 1.000000000000000000, 0.0000000000000000000 ) ) ;
#535 = CARTESIAN_POINT ( 'NONE',  ( -7.500000000000002700, 1.199999999999999700, 7.150000000000000400 ) ) ;
#536 = EDGE_CURVE ( 'NONE', #581, #328, #17, .T. ) ;
#537 = DIRECTION ( 'NONE',  ( 0.0000000000000000000, 0.0000000000000000000, 1.000000000000000000 ) ) ;
#538 = SURFACE_STYLE_USAGE ( .BOTH. , #615 ) ;
#539 = VERTEX_POINT ( 'NONE', #1052 ) ;
#540 =( NAMED_UNIT ( * ) SI_UNIT ( $, .STERADIAN. ) SOLID_ANGLE_UNIT ( ) );
#541 = VECTOR ( 'NONE', #565, 1000.000000000000000 ) ;
#542 = ORIENTED_EDGE ( 'NONE', *, *, #611, .F. ) ;
#543 = DIRECTION ( 'NONE',  ( 0.0000000000000000000, 0.0000000000000000000, 1.000000000000000000 ) ) ;
#544 = DIRECTION ( 'NONE',  ( -1.000000000000000000, -0.0000000000000000000, -0.0000000000000000000 ) ) ;
#545 = ADVANCED_FACE ( 'NONE', ( #381 ), #152, .F. ) ;
#546 = LINE ( 'NONE', #1181, #761 ) ;
#547 = CARTESIAN_POINT ( 'NONE',  ( -7.250000000000001800, -4.599999999999999600, 1.800000000000000300 ) ) ;
#548 = PLANE ( 'NONE',  #996 ) ;
#549 = CARTESIAN_POINT ( 'NONE',  ( -9.400000000000002100, -0.5000000000000000000, 7.200000000000001100 ) ) ;
#550 = ADVANCED_FACE ( 'NONE', ( #622 ), #241, .F. ) ;
#551 = DIRECTION ( 'NONE',  ( 0.0000000000000000000, 0.0000000000000000000, 1.000000000000000000 ) ) ;
#552 = ORIENTED_EDGE ( 'NONE', *, *, #253, .F. ) ;
#553 = CARTESIAN_POINT ( 'NONE',  ( -9.400000000000002100, 0.0000000000000000000, 0.0000000000000000000 ) ) ;
#554 = FILL_AREA_STYLE_COLOUR ( '', #751 ) ;
#555 = STYLED_ITEM ( 'NONE', ( #943 ), #419 ) ;
#556 = ORIENTED_EDGE ( 'NONE', *, *, #361, .T. ) ;
#557 = ORIENTED_EDGE ( 'NONE', *, *, #242, .T. ) ;
#558 = ADVANCED_FACE ( 'NONE', ( #1033 ), #893, .F. ) ;
#559 = DIRECTION ( 'NONE',  ( 0.0000000000000000000, 0.0000000000000000000, -1.000000000000000000 ) ) ;
#560 = SURFACE_STYLE_FILL_AREA ( #335 ) ;
#561 = EDGE_CURVE ( 'NONE', #677, #935, #958, .T. ) ;
#562 = EDGE_CURVE ( 'NONE', #741, #656, #218, .T. ) ;
#563 = CARTESIAN_POINT ( 'NONE',  ( -0.1300000000000016400, -4.599999999999999600, 1.800000000000000300 ) ) ;
#564 = FILL_AREA_STYLE ('',( #186 ) ) ;
#565 = DIRECTION ( 'NONE',  ( 1.000000000000000000, 0.0000000000000000000, 0.0000000000000000000 ) ) ;
#566 = CARTESIAN_POINT ( 'NONE',  ( -9.400000000000002100, 0.0000000000000000000, 7.200000000000001100 ) ) ;
#567 = EDGE_CURVE ( 'NONE', #568, #92, #1215, .T. ) ;
#568 = VERTEX_POINT ( 'NONE', #906 ) ;
#569 = DIRECTION ( 'NONE',  ( -1.000000000000000000, -0.0000000000000000000, -0.0000000000000000000 ) ) ;
#570 = EDGE_LOOP ( 'NONE', ( #258, #724, #100, #668 ) ) ;
#571 =( GEOMETRIC_REPRESENTATION_CONTEXT ( 3 ) GLOBAL_UNCERTAINTY_ASSIGNED_CONTEXT ( ( #920 ) ) GLOBAL_UNIT_ASSIGNED_CONTEXT ( ( #840, #190, #83 ) ) REPRESENTATION_CONTEXT ( 'NONE', 'WORKASPACE' ) );
#572 = EDGE_LOOP ( 'NONE', ( #1014, #1185, #857, #743 ) ) ;
#573 = AXIS2_PLACEMENT_3D ( 'NONE', #549, #534, #736 ) ;
#574 = PLANE ( 'NONE',  #777 ) ;
#575 = PRESENTATION_STYLE_ASSIGNMENT (( #518 ) ) ;
#576 = EDGE_CURVE ( 'NONE', #164, #207, #546, .T. ) ;
#577 = EDGE_CURVE ( 'NONE', #455, #829, #1180, .T. ) ;
#578 = CARTESIAN_POINT ( 'NONE',  ( 5.449999999999999300, 0.0000000000000000000, 1.500000000000000000 ) ) ;
#579 = PRODUCT_RELATED_PRODUCT_CATEGORY ( 'part', '', ( #931 ) ) ;
#580 = ORIENTED_EDGE ( 'NONE', *, *, #946, .F. ) ;
#581 = VERTEX_POINT ( 'NONE', #159 ) ;
#582 = VERTEX_POINT ( 'NONE', #368 ) ;
#583 = FACE_OUTER_BOUND ( 'NONE', #952, .T. ) ;
#584 = MECHANICAL_DESIGN_GEOMETRIC_PRESENTATION_REPRESENTATION (  '', ( #1080 ), #505 ) ;
#585 = FILL_AREA_STYLE_COLOUR ( '', #942 ) ;
#586 = MECHANICAL_DESIGN_GEOMETRIC_PRESENTATION_REPRESENTATION (  '', ( #97 ), #571 ) ;
#587 = DIRECTION ( 'NONE',  ( 0.0000000000000000000, 1.000000000000000000, 0.0000000000000000000 ) ) ;
#588 = DIRECTION ( 'NONE',  ( 1.000000000000000000, -5.692061405548909300E-015, 0.0000000000000000000 ) ) ;
#589 = CLOSED_SHELL ( 'NONE', ( #168, #530, #457, #262, #904, #1203 ) ) ;
#590 = EDGE_CURVE ( 'NONE', #1053, #1208, #47, .T. ) ;
#591 = EDGE_LOOP ( 'NONE', ( #850, #41, #634, #907 ) ) ;
#592 = FACE_OUTER_BOUND ( 'NONE', #437, .T. ) ;
#593 = DIRECTION ( 'NONE',  ( 0.0000000000000000000, 1.000000000000000000, 0.0000000000000000000 ) ) ;
#594 = VECTOR ( 'NONE', #908, 1000.000000000000000 ) ;
#595 = AXIS2_PLACEMENT_3D ( 'NONE', #962, #228, #1068 ) ;
#596 =( NAMED_UNIT ( * ) PLANE_ANGLE_UNIT ( ) SI_UNIT ( $, .RADIAN. ) );
#597 = LINE ( 'NONE', #1171, #515 ) ;
#598 = DIRECTION ( 'NONE',  ( -1.000000000000000000, 0.0000000000000000000, 0.0000000000000000000 ) ) ;
#599 = VECTOR ( 'NONE', #953, 1000.000000000000000 ) ;
#600 =( GEOMETRIC_REPRESENTATION_CONTEXT ( 3 ) GLOBAL_UNCERTAINTY_ASSIGNED_CONTEXT ( ( #1048 ) ) GLOBAL_UNIT_ASSIGNED_CONTEXT ( ( #639, #817, #902 ) ) REPRESENTATION_CONTEXT ( 'NONE', 'WORKASPACE' ) );
#601 = VERTEX_POINT ( 'NONE', #275 ) ;
#602 = DIRECTION ( 'NONE',  ( -1.000000000000000000, 0.0000000000000000000, 0.0000000000000000000 ) ) ;
#603 = CLOSED_SHELL ( 'NONE', ( #1105, #828, #278, #545, #628, #73 ) ) ;
#604 = CARTESIAN_POINT ( 'NONE',  ( -5.210000000000000900, -4.599999999999999600, 1.800000000000000300 ) ) ;
#605 = DIRECTION ( 'NONE',  ( 0.0000000000000000000, 0.0000000000000000000, -1.000000000000000000 ) ) ;
#606 = PRESENTATION_LAYER_ASSIGNMENT (  '', '', ( #210 ) ) ;
#607 = LINE ( 'NONE', #961, #118 ) ;
#608 = FILL_AREA_STYLE_COLOUR ( '', #856 ) ;
#609 = EDGE_CURVE ( 'NONE', #861, #581, #466, .T. ) ;
#610 = DIRECTION ( 'NONE',  ( 1.000000000000000000, 0.0000000000000000000, 0.0000000000000000000 ) ) ;
#611 = EDGE_CURVE ( 'NONE', #829, #794, #427, .T. ) ;
#612 = CARTESIAN_POINT ( 'NONE',  ( -7.250000000000001800, 0.0000000000000000000, 1.800000000000000300 ) ) ;
#613 = UNCERTAINTY_MEASURE_WITH_UNIT (LENGTH_MEASURE( 1.000000000000000100E-005 ), #1065, 'distance_accuracy_value', 'NONE');
#614 = EDGE_LOOP ( 'NONE', ( #643, #391, #690, #456 ) ) ;
#615 = SURFACE_SIDE_STYLE ('',( #248 ) ) ;
#616 = DIRECTION ( 'NONE',  ( 0.0000000000000000000, 0.0000000000000000000, -1.000000000000000000 ) ) ;
#617 = ORIENTED_EDGE ( 'NONE', *, *, #746, .T. ) ;
#618 = ORIENTED_EDGE ( 'NONE', *, *, #985, .T. ) ;
#619 = LINE ( 'NONE', #1023, #474 ) ;
#620 = CARTESIAN_POINT ( 'NONE',  ( -5.210000000000000900, -4.599999999999999600, 1.500000000000000000 ) ) ;
#621 = CARTESIAN_POINT ( 'NONE',  ( 0.3699999999999979400, -4.599999999999999600, 1.500000000000000000 ) ) ;
#622 = FACE_OUTER_BOUND ( 'NONE', #591, .T. ) ;
#623 = FILL_AREA_STYLE_COLOUR ( '', #1178 ) ;
#624 = DIRECTION ( 'NONE',  ( 0.0000000000000000000, 0.0000000000000000000, -1.000000000000000000 ) ) ;
#625 = VECTOR ( 'NONE', #1141, 1000.000000000000000 ) ;
#626 = APPLICATION_PROTOCOL_DEFINITION ( 'draft international standard', 'automotive_design', 1998, #1096 ) ;
#627 = DIRECTION ( 'NONE',  ( 0.0000000000000000000, 0.0000000000000000000, -1.000000000000000000 ) ) ;
#628 = ADVANCED_FACE ( 'NONE', ( #116 ), #1009, .T. ) ;
#629 = CARTESIAN_POINT ( 'NONE',  ( 5.449999999999999300, -4.599999999999999600, 1.500000000000000000 ) ) ;
#630 = SURFACE_SIDE_STYLE ('',( #892 ) ) ;
#631 = CARTESIAN_POINT ( 'NONE',  ( -7.500000000000002700, 1.199999999999999700, 7.150000000000000400 ) ) ;
#632 = PRESENTATION_LAYER_ASSIGNMENT (  '', '', ( #458 ) ) ;
#633 = MANIFOLD_SOLID_BREP ( 'LPattern2[1]', #25 ) ;
#634 = ORIENTED_EDGE ( 'NONE', *, *, #1030, .F. ) ;
#635 = ORIENTED_EDGE ( 'NONE', *, *, #609, .F. ) ;
#636 = SURFACE_SIDE_STYLE ('',( #1077 ) ) ;
#637 = ADVANCED_FACE ( 'NONE', ( #799 ), #548, .F. ) ;
#638 = ORIENTED_EDGE ( 'NONE', *, *, #169, .T. ) ;
#639 =( LENGTH_UNIT ( ) NAMED_UNIT ( * ) SI_UNIT ( .MILLI., .METRE. ) );
#640 = EDGE_LOOP ( 'NONE', ( #839, #1083, #506, #469, #841, #146, #994, #247 ) ) ;
#641 = DIRECTION ( 'NONE',  ( 1.000000000000000000, 0.0000000000000000000, 0.0000000000000000000 ) ) ;
#642 = LINE ( 'NONE', #831, #1019 ) ;
#643 = ORIENTED_EDGE ( 'NONE', *, *, #385, .T. ) ;
#644 = CARTESIAN_POINT ( 'NONE',  ( -9.400000000000002100, 0.0000000000000000000, 0.0000000000000000000 ) ) ;
#645 = DIRECTION ( 'NONE',  ( -1.000000000000000000, -5.692061405548908500E-015, 0.0000000000000000000 ) ) ;
#646 = FACE_OUTER_BOUND ( 'NONE', #614, .T. ) ;
#647 = CARTESIAN_POINT ( 'NONE',  ( -7.750000000000001800, -4.599999999999999600, 1.800000000000000300 ) ) ;
#648 = DIRECTION ( 'NONE',  ( 0.0000000000000000000, 0.0000000000000000000, 1.000000000000000000 ) ) ;
#649 = ADVANCED_FACE ( 'NONE', ( #774 ), #1212, .F. ) ;
#650 = VECTOR ( 'NONE', #482, 1000.000000000000000 ) ;
#651 = PRESENTATION_LAYER_ASSIGNMENT (  '', '', ( #522 ) ) ;
#652 =( NAMED_UNIT ( * ) PLANE_ANGLE_UNIT ( ) SI_UNIT ( $, .RADIAN. ) );
#653 = ORIENTED_EDGE ( 'NONE', *, *, #846, .T. ) ;
#654 =( GEOMETRIC_REPRESENTATION_CONTEXT ( 3 ) GLOBAL_UNCERTAINTY_ASSIGNED_CONTEXT ( ( #711 ) ) GLOBAL_UNIT_ASSIGNED_CONTEXT ( ( #758, #1138, #762 ) ) REPRESENTATION_CONTEXT ( 'NONE', 'WORKASPACE' ) );
#655 = ORIENTED_EDGE ( 'NONE', *, *, #946, .T. ) ;
#656 = VERTEX_POINT ( 'NONE', #291 ) ;
#657 = CARTESIAN_POINT ( 'NONE',  ( -9.400000000000002100, 0.0000000000000000000, 7.200000000000001100 ) ) ;
#658 = PRODUCT_CONTEXT ( 'NONE', #1096, 'mechanical' ) ;
#659 = FACE_OUTER_BOUND ( 'NONE', #224, .T. ) ;
#660 = FACE_OUTER_BOUND ( 'NONE', #937, .T. ) ;
#661 = EDGE_CURVE ( 'NONE', #979, #935, #956, .T. ) ;
#662 = CARTESIAN_POINT ( 'NONE',  ( -5.210000000000000900, 0.0000000000000000000, 1.500000000000000000 ) ) ;
#663 = CARTESIAN_POINT ( 'NONE',  ( -9.800000000000000700, -0.4999999999999977200, 7.200000000000001100 ) ) ;
#664 = MANIFOLD_SOLID_BREP ( 'Boss-Extrude2', #603 ) ;
#665 = VECTOR ( 'NONE', #1186, 1000.000000000000000 ) ;
#666 = CARTESIAN_POINT ( 'NONE',  ( 0.3699999999999979400, -4.599999999999999600, 1.800000000000000300 ) ) ;
#667 = ORIENTED_EDGE ( 'NONE', *, *, #874, .F. ) ;
#668 = ORIENTED_EDGE ( 'NONE', *, *, #18, .T. ) ;
#669 = PRESENTATION_LAYER_ASSIGNMENT (  '', '', ( #380 ) ) ;
#670 = DIRECTION ( 'NONE',  ( 0.0000000000000000000, 1.000000000000000000, 0.0000000000000000000 ) ) ;
#671 = COLOUR_RGB ( '',0.2509803921568627400, 0.2509803921568627400, 0.2509803921568627400 ) ;
#672 = STYLED_ITEM ( 'NONE', ( #217 ), #637 ) ;
#673 = PLANE ( 'NONE',  #20 ) ;
#674 = PRODUCT_DEFINITION_FORMATION_WITH_SPECIFIED_SOURCE ( 'ANY', '', #931, .NOT_KNOWN. ) ;
#675 =( NAMED_UNIT ( * ) SI_UNIT ( $, .STERADIAN. ) SOLID_ANGLE_UNIT ( ) );
#676 = ORIENTED_EDGE ( 'NONE', *, *, #179, .F. ) ;
#677 = VERTEX_POINT ( 'NONE', #185 ) ;
#678 = EDGE_CURVE ( 'NONE', #861, #1208, #865, .T. ) ;
#679 = ORIENTED_EDGE ( 'NONE', *, *, #843, .F. ) ;
#680 =( NAMED_UNIT ( * ) PLANE_ANGLE_UNIT ( ) SI_UNIT ( $, .RADIAN. ) );
#681 = EDGE_CURVE ( 'NONE', #689, #1053, #412, .T. ) ;
#682 = ORIENTED_EDGE ( 'NONE', *, *, #61, .F. ) ;
#683 = LINE ( 'NONE', #117, #811 ) ;
#684 = CARTESIAN_POINT ( 'NONE',  ( -4.710000000000002600, -4.599999999999999600, 1.500000000000000000 ) ) ;
#685 = FACE_OUTER_BOUND ( 'NONE', #707, .T. ) ;
#686 = LINE ( 'NONE', #481, #650 ) ;
#687 =( NAMED_UNIT ( * ) PLANE_ANGLE_UNIT ( ) SI_UNIT ( $, .RADIAN. ) );
#688 = CARTESIAN_POINT ( 'NONE',  ( 4.949999999999999300, 0.0000000000000000000, 1.800000000000000300 ) ) ;
#689 = VERTEX_POINT ( 'NONE', #951 ) ;
#690 = ORIENTED_EDGE ( 'NONE', *, *, #562, .F. ) ;
#691 = UNCERTAINTY_MEASURE_WITH_UNIT (LENGTH_MEASURE( 1.000000000000000100E-005 ), #40, 'distance_accuracy_value', 'NONE');
#692 = ORIENTED_EDGE ( 'NONE', *, *, #18, .F. ) ;
#693 = ORIENTED_EDGE ( 'NONE', *, *, #722, .T. ) ;
#694 = VERTEX_POINT ( 'NONE', #1022 ) ;
#695 =( GEOMETRIC_REPRESENTATION_CONTEXT ( 3 ) GLOBAL_UNCERTAINTY_ASSIGNED_CONTEXT ( ( #934 ) ) GLOBAL_UNIT_ASSIGNED_CONTEXT ( ( #160, #463, #269 ) ) REPRESENTATION_CONTEXT ( 'NONE', 'WORKASPACE' ) );
#696 = LINE ( 'NONE', #1163, #151 ) ;
#697 = CARTESIAN_POINT ( 'NONE',  ( 4.949999999999999300, -4.599999999999999600, 1.500000000000000000 ) ) ;
#698 = CARTESIAN_POINT ( 'NONE',  ( -0.1300000000000016400, -4.599999999999999600, 1.800000000000000300 ) ) ;
#699 = VECTOR ( 'NONE', #19, 1000.000000000000000 ) ;
#700 = DIRECTION ( 'NONE',  ( -1.000000000000000000, -0.0000000000000000000, -0.0000000000000000000 ) ) ;
#701 = PRESENTATION_STYLE_ASSIGNMENT (( #753 ) ) ;
#702 = PLANE ( 'NONE',  #387 ) ;
#703 = CARTESIAN_POINT ( 'NONE',  ( -7.500000000000002700, 1.199999999999999700, 7.150000000000000400 ) ) ;
#704 =( NAMED_UNIT ( * ) PLANE_ANGLE_UNIT ( ) SI_UNIT ( $, .RADIAN. ) );
#705 = DIRECTION ( 'NONE',  ( 0.0000000000000000000, 0.0000000000000000000, 1.000000000000000000 ) ) ;
#706 = DIRECTION ( 'NONE',  ( 0.0000000000000000000, 0.0000000000000000000, 1.000000000000000000 ) ) ;
#707 = EDGE_LOOP ( 'NONE', ( #938, #971, #886, #779 ) ) ;
#708 = AXIS2_PLACEMENT_3D ( 'NONE', #339, #147, #532 ) ;
#709 = VERTEX_POINT ( 'NONE', #399 ) ;
#710 = DIRECTION ( 'NONE',  ( 0.0000000000000000000, 1.000000000000000000, 0.0000000000000000000 ) ) ;
#711 = UNCERTAINTY_MEASURE_WITH_UNIT (LENGTH_MEASURE( 1.000000000000000100E-005 ), #758, 'distance_accuracy_value', 'NONE');
#712 = EDGE_LOOP ( 'NONE', ( #725, #1057, #982, #126 ) ) ;
#713 = CARTESIAN_POINT ( 'NONE',  ( 9.800000000000000700, -0.4999999999999977200, 7.200000000000001100 ) ) ;
#714 = VERTEX_POINT ( 'NONE', #563 ) ;
#715 = SURFACE_STYLE_USAGE ( .BOTH. , #46 ) ;
#716 = LINE ( 'NONE', #90, #113 ) ;
#717 = LINE ( 'NONE', #976, #1 ) ;
#718 = FILL_AREA_STYLE ('',( #608 ) ) ;
#719 = PRESENTATION_STYLE_ASSIGNMENT (( #182 ) ) ;
#720 = PLANE ( 'NONE',  #1020 ) ;
#721 = VECTOR ( 'NONE', #569, 1000.000000000000000 ) ;
#722 = EDGE_CURVE ( 'NONE', #1172, #1027, #203, .T. ) ;
#723 = DIRECTION ( 'NONE',  ( -0.0000000000000000000, -1.000000000000000000, -0.0000000000000000000 ) ) ;
#724 = ORIENTED_EDGE ( 'NONE', *, *, #860, .F. ) ;
#725 = ORIENTED_EDGE ( 'NONE', *, *, #303, .T. ) ;
#726 = UNCERTAINTY_MEASURE_WITH_UNIT (LENGTH_MEASURE( 1.000000000000000100E-005 ), #1166, 'distance_accuracy_value', 'NONE');
#727 = ORIENTED_EDGE ( 'NONE', *, *, #267, .F. ) ;
#728 = DIRECTION ( 'NONE',  ( 0.0000000000000000000, 0.0000000000000000000, 1.000000000000000000 ) ) ;
#729 = VECTOR ( 'NONE', #990, 1000.000000000000000 ) ;
#730 = FILL_AREA_STYLE ('',( #826 ) ) ;
#731 = DIRECTION ( 'NONE',  ( 0.0000000000000000000, 0.0000000000000000000, 1.000000000000000000 ) ) ;
#732 = ADVANCED_FACE ( 'NONE', ( #896 ), #495, .F. ) ;
#733 = FACE_OUTER_BOUND ( 'NONE', #570, .T. ) ;
#734 = DIRECTION ( 'NONE',  ( 0.0000000000000000000, 0.0000000000000000000, 1.000000000000000000 ) ) ;
#735 = SURFACE_STYLE_FILL_AREA ( #924 ) ;
#736 = DIRECTION ( 'NONE',  ( -1.000000000000000000, 5.692061405548908500E-015, 0.0000000000000000000 ) ) ;
#737 = CARTESIAN_POINT ( 'NONE',  ( 0.3699999999999979400, -4.599999999999999600, 1.800000000000000300 ) ) ;
#738 = DIRECTION ( 'NONE',  ( 0.0000000000000000000, 0.0000000000000000000, 1.000000000000000000 ) ) ;
#739 = ADVANCED_FACE ( 'NONE', ( #1196 ), #106, .F. ) ;
#740 = PRESENTATION_LAYER_ASSIGNMENT (  '', '', ( #672 ) ) ;
#741 = VERTEX_POINT ( 'NONE', #1143 ) ;
#742 = CARTESIAN_POINT ( 'NONE',  ( -0.1300000000000016400, 0.0000000000000000000, 1.800000000000000300 ) ) ;
#743 = ORIENTED_EDGE ( 'NONE', *, *, #533, .T. ) ;
#744 = LINE ( 'NONE', #1123, #852 ) ;
#745 = ORIENTED_EDGE ( 'NONE', *, *, #1076, .F. ) ;
#746 = EDGE_CURVE ( 'NONE', #309, #316, #102, .T. ) ;
#747 = LINE ( 'NONE', #1204, #440 ) ;
#748 = PRESENTATION_STYLE_ASSIGNMENT (( #141 ) ) ;
#749 = CARTESIAN_POINT ( 'NONE',  ( 9.400000000000002100, 0.0000000000000000000, 7.200000000000001100 ) ) ;
#750 =( GEOMETRIC_REPRESENTATION_CONTEXT ( 3 ) GLOBAL_UNCERTAINTY_ASSIGNED_CONTEXT ( ( #403 ) ) GLOBAL_UNIT_ASSIGNED_CONTEXT ( ( #330, #334, #42 ) ) REPRESENTATION_CONTEXT ( 'NONE', 'WORKASPACE' ) );
#751 = COLOUR_RGB ( '',0.2509803921568627400, 0.2509803921568627400, 0.2509803921568627400 ) ;
#752 = UNCERTAINTY_MEASURE_WITH_UNIT (LENGTH_MEASURE( 1.000000000000000100E-005 ), #836, 'distance_accuracy_value', 'NONE');
#753 = SURFACE_STYLE_USAGE ( .BOTH. , #85 ) ;
#754 =( NAMED_UNIT ( * ) SI_UNIT ( $, .STERADIAN. ) SOLID_ANGLE_UNIT ( ) );
#755 = DIRECTION ( 'NONE',  ( 0.0000000000000000000, -1.000000000000000000, 0.0000000000000000000 ) ) ;
#756 = ORIENTED_EDGE ( 'NONE', *, *, #408, .F. ) ;
#757 = ORIENTED_EDGE ( 'NONE', *, *, #119, .T. ) ;
#758 =( LENGTH_UNIT ( ) NAMED_UNIT ( * ) SI_UNIT ( .MILLI., .METRE. ) );
#759 = PRESENTATION_STYLE_ASSIGNMENT (( #254 ) ) ;
#760 = VECTOR ( 'NONE', #738, 1000.000000000000000 ) ;
#761 = VECTOR ( 'NONE', #1205, 1000.000000000000000 ) ;
#762 =( NAMED_UNIT ( * ) SI_UNIT ( $, .STERADIAN. ) SOLID_ANGLE_UNIT ( ) );
#763 = AXIS2_PLACEMENT_3D ( 'NONE', #276, #914, #645 ) ;
#764 = DIRECTION ( 'NONE',  ( 0.0000000000000000000, -1.000000000000000000, 0.0000000000000000000 ) ) ;
#765 = PLANE ( 'NONE',  #1006 ) ;
#766 = EDGE_CURVE ( 'NONE', #331, #483, #348, .T. ) ;
#767 = FILL_AREA_STYLE_COLOUR ( '', #397 ) ;
#768 = ORIENTED_EDGE ( 'NONE', *, *, #139, .F. ) ;
#769 = ORIENTED_EDGE ( 'NONE', *, *, #408, .T. ) ;
#770 = VECTOR ( 'NONE', #460, 1000.000000000000000 ) ;
#771 = DIRECTION ( 'NONE',  ( 0.0000000000000000000, 0.0000000000000000000, 1.000000000000000000 ) ) ;
#772 = VECTOR ( 'NONE', #710, 1000.000000000000000 ) ;
#773 = CARTESIAN_POINT ( 'NONE',  ( 0.3699999999999979400, 0.0000000000000000000, 1.500000000000000000 ) ) ;
#774 = FACE_OUTER_BOUND ( 'NONE', #969, .T. ) ;
#775 = SURFACE_STYLE_FILL_AREA ( #322 ) ;
#776 =( NAMED_UNIT ( * ) PLANE_ANGLE_UNIT ( ) SI_UNIT ( $, .RADIAN. ) );
#777 = AXIS2_PLACEMENT_3D ( 'NONE', #93, #755, #559 ) ;
#778 =( NAMED_UNIT ( * ) SI_UNIT ( $, .STERADIAN. ) SOLID_ANGLE_UNIT ( ) );
#779 = ORIENTED_EDGE ( 'NONE', *, *, #800, .T. ) ;
#780 = SURFACE_SIDE_STYLE ('',( #1095 ) ) ;
#781 = ORIENTED_EDGE ( 'NONE', *, *, #567, .T. ) ;
#782 = VECTOR ( 'NONE', #723, 1000.000000000000000 ) ;
#783 = VERTEX_POINT ( 'NONE', #866 ) ;
#784 = VECTOR ( 'NONE', #593, 1000.000000000000000 ) ;
#785 = DIRECTION ( 'NONE',  ( -0.0000000000000000000, -0.0000000000000000000, -1.000000000000000000 ) ) ;
#786 = PLANE ( 'NONE',  #595 ) ;
#787 = VECTOR ( 'NONE', #1086, 1000.000000000000000 ) ;
#788 = CARTESIAN_POINT ( 'NONE',  ( -0.1300000000000016400, -4.599999999999999600, 1.800000000000000300 ) ) ;
#789 = DIRECTION ( 'NONE',  ( 0.0000000000000000000, 0.0000000000000000000, 1.000000000000000000 ) ) ;
#790 = DIRECTION ( 'NONE',  ( 0.0000000000000000000, 0.0000000000000000000, 1.000000000000000000 ) ) ;
#791 = ORIENTED_EDGE ( 'NONE', *, *, #511, .T. ) ;
#792 = DIRECTION ( 'NONE',  ( 1.000000000000000000, 0.0000000000000000000, 0.0000000000000000000 ) ) ;
#793 = VERTEX_POINT ( 'NONE', #974 ) ;
#794 = VERTEX_POINT ( 'NONE', #964 ) ;
#795 = AXIS2_PLACEMENT_3D ( 'NONE', #1198, #641, #627 ) ;
#796 = MANIFOLD_SOLID_BREP ( 'LPattern2[3]', #589 ) ;
#797 = ORIENTED_EDGE ( 'NONE', *, *, #344, .T. ) ;
#798 = LINE ( 'NONE', #250, #772 ) ;
#799 = FACE_OUTER_BOUND ( 'NONE', #375, .T. ) ;
#800 = EDGE_CURVE ( 'NONE', #164, #783, #172, .T. ) ;
#801 = DIRECTION ( 'NONE',  ( 0.0000000000000000000, 0.0000000000000000000, -1.000000000000000000 ) ) ;
#802 =( NAMED_UNIT ( * ) SI_UNIT ( $, .STERADIAN. ) SOLID_ANGLE_UNIT ( ) );
#803 = DIRECTION ( 'NONE',  ( 0.0000000000000000000, 0.0000000000000000000, 1.000000000000000000 ) ) ;
#804 = FILL_AREA_STYLE ('',( #50 ) ) ;
#805 = CARTESIAN_POINT ( 'NONE',  ( -9.800000000000000700, -0.4999999999999977200, 0.0000000000000000000 ) ) ;
#806 = DIRECTION ( 'NONE',  ( 0.0000000000000000000, 0.0000000000000000000, -1.000000000000000000 ) ) ;
#807 = ORIENTED_EDGE ( 'NONE', *, *, #288, .F. ) ;
#808 = DIRECTION ( 'NONE',  ( 1.000000000000000000, 0.0000000000000000000, 0.0000000000000000000 ) ) ;
#809 = EDGE_LOOP ( 'NONE', ( #290, #1040, #229, #825 ) ) ;
#810 = DIRECTION ( 'NONE',  ( 1.000000000000000000, 0.0000000000000000000, 0.0000000000000000000 ) ) ;
#811 = VECTOR ( 'NONE', #970, 1000.000000000000000 ) ;
#812 = ORIENTED_EDGE ( 'NONE', *, *, #512, .T. ) ;
#813 = UNCERTAINTY_MEASURE_WITH_UNIT (LENGTH_MEASURE( 1.000000000000000100E-005 ), #901, 'distance_accuracy_value', 'NONE');
#814 = AXIS2_PLACEMENT_3D ( 'NONE', #223, #313, #1061 ) ;
#815 = DIRECTION ( 'NONE',  ( 0.0000000000000000000, 1.000000000000000000, 0.0000000000000000000 ) ) ;
#816 = FILL_AREA_STYLE ('',( #1087 ) ) ;
#817 =( NAMED_UNIT ( * ) PLANE_ANGLE_UNIT ( ) SI_UNIT ( $, .RADIAN. ) );
#818 = AXIS2_PLACEMENT_3D ( 'NONE', #879, #1156, #598 ) ;
#819 = FILL_AREA_STYLE ('',( #554 ) ) ;
#820 = DIRECTION ( 'NONE',  ( 1.000000000000000000, 0.0000000000000000000, 0.0000000000000000000 ) ) ;
#821 = ADVANCED_FACE ( 'NONE', ( #646 ), #410, .F. ) ;
#822 = EDGE_CURVE ( 'NONE', #1109, #13, #1032, .T. ) ;
#823 = DIRECTION ( 'NONE',  ( 1.000000000000000000, 0.0000000000000000000, 0.0000000000000000000 ) ) ;
#824 = DIRECTION ( 'NONE',  ( 0.0000000000000000000, 0.0000000000000000000, 1.000000000000000000 ) ) ;
#825 = ORIENTED_EDGE ( 'NONE', *, *, #1017, .T. ) ;
#826 = FILL_AREA_STYLE_COLOUR ( '', #939 ) ;
#827 = DIRECTION ( 'NONE',  ( 1.000000000000000000, 0.0000000000000000000, 0.0000000000000000000 ) ) ;
#828 = ADVANCED_FACE ( 'NONE', ( #1136 ), #507, .F. ) ;
#829 = VERTEX_POINT ( 'NONE', #688 ) ;
#830 = ORIENTED_EDGE ( 'NONE', *, *, #370, .T. ) ;
#831 = CARTESIAN_POINT ( 'NONE',  ( -4.710000000000002600, 0.0000000000000000000, 1.800000000000000300 ) ) ;
#832 = LINE ( 'NONE', #165, #1091 ) ;
#833 = SURFACE_STYLE_USAGE ( .BOTH. , #1206 ) ;
#834 = EDGE_CURVE ( 'NONE', #539, #455, #94, .T. ) ;
#835 = CARTESIAN_POINT ( 'NONE',  ( 9.400000000000002100, 0.0000000000000000000, 7.200000000000001100 ) ) ;
#836 =( LENGTH_UNIT ( ) NAMED_UNIT ( * ) SI_UNIT ( .MILLI., .METRE. ) );
#837 = AXIS2_PLACEMENT_3D ( 'NONE', #749, #371, #1127 ) ;
#838 = APPLICATION_PROTOCOL_DEFINITION ( 'draft international standard', 'automotive_design', 1998, #191 ) ;
#839 = ORIENTED_EDGE ( 'NONE', *, *, #1030, .T. ) ;
#840 =( LENGTH_UNIT ( ) NAMED_UNIT ( * ) SI_UNIT ( .MILLI., .METRE. ) );
#841 = ORIENTED_EDGE ( 'NONE', *, *, #1094, .T. ) ;
#842 = FACE_OUTER_BOUND ( 'NONE', #1044, .T. ) ;
#843 = EDGE_CURVE ( 'NONE', #936, #992, #65, .T. ) ;
#844 = DIRECTION ( 'NONE',  ( 0.0000000000000000000, 0.0000000000000000000, 1.000000000000000000 ) ) ;
#845 = LINE ( 'NONE', #434, #1193 ) ;
#846 = EDGE_CURVE ( 'NONE', #992, #936, #324, .T. ) ;
#847 = VECTOR ( 'NONE', #944, 1000.000000000000000 ) ;
#848 = LINE ( 'NONE', #742, #721 ) ;
#849 = DIRECTION ( 'NONE',  ( 1.000000000000000000, 0.0000000000000000000, 0.0000000000000000000 ) ) ;
#850 = ORIENTED_EDGE ( 'NONE', *, *, #176, .T. ) ;
#851 = ORIENTED_EDGE ( 'NONE', *, *, #453, .F. ) ;
#852 = VECTOR ( 'NONE', #1007, 1000.000000000000000 ) ;
#853 = VERTEX_POINT ( 'NONE', #225 ) ;
#854 = LINE ( 'NONE', #43, #465 ) ;
#855 = CARTESIAN_POINT ( 'NONE',  ( -9.400000000000002100, -0.5000000000000000000, 7.200000000000001100 ) ) ;
#856 = COLOUR_RGB ( '',0.2509803921568627400, 0.2509803921568627400, 0.2509803921568627400 ) ;
#857 = ORIENTED_EDGE ( 'NONE', *, *, #1177, .F. ) ;
#858 = DIRECTION ( 'NONE',  ( 0.0000000000000000000, 0.0000000000000000000, -1.000000000000000000 ) ) ;
#859 = ORIENTED_EDGE ( 'NONE', *, *, #940, .T. ) ;
#860 = EDGE_CURVE ( 'NONE', #60, #111, #1047, .T. ) ;
#861 = VERTEX_POINT ( 'NONE', #503 ) ;
#862 = PLANE ( 'NONE',  #1120 ) ;
#863 = ORIENTED_EDGE ( 'NONE', *, *, #1099, .F. ) ;
#864 = SURFACE_STYLE_USAGE ( .BOTH. , #780 ) ;
#865 = LINE ( 'NONE', #657, #5 ) ;
#866 = CARTESIAN_POINT ( 'NONE',  ( -9.800000000000000700, 9.700000000000002800, 0.0000000000000000000 ) ) ;
#867 = DIRECTION ( 'NONE',  ( 0.0000000000000000000, 0.0000000000000000000, -1.000000000000000000 ) ) ;
#868 = PRESENTATION_LAYER_ASSIGNMENT (  '', '', ( #305 ) ) ;
#869 = PRODUCT_DEFINITION_SHAPE ( 'NONE', 'NONE',  #464 ) ;
#870 = STYLED_ITEM ( 'NONE', ( #759 ), #1128 ) ;
#871 = PLANE ( 'NONE',  #332 ) ;
#872 = EDGE_LOOP ( 'NONE', ( #459, #261, #1016, #496 ) ) ;
#873 = FILL_AREA_STYLE ('',( #960 ) ) ;
#874 = EDGE_CURVE ( 'NONE', #435, #1109, #973, .T. ) ;
#875 = ORIENTED_EDGE ( 'NONE', *, *, #361, .F. ) ;
#876 = PLANE ( 'NONE',  #1216 ) ;
#877 = ORIENTED_EDGE ( 'NONE', *, *, #577, .F. ) ;
#878 = CARTESIAN_POINT ( 'NONE',  ( 5.449999999999999300, 0.0000000000000000000, 1.800000000000000300 ) ) ;
#879 = CARTESIAN_POINT ( 'NONE',  ( -7.750000000000001800, -4.599999999999999600, 1.800000000000000300 ) ) ;
#880 =( NAMED_UNIT ( * ) PLANE_ANGLE_UNIT ( ) SI_UNIT ( $, .RADIAN. ) );
#881 = CARTESIAN_POINT ( 'NONE',  ( -7.750000000000001800, 0.0000000000000000000, 1.800000000000000300 ) ) ;
#882 = SURFACE_STYLE_FILL_AREA ( #819 ) ;
#883 = EDGE_CURVE ( 'NONE', #60, #741, #513, .T. ) ;
#884 = MECHANICAL_DESIGN_GEOMETRIC_PRESENTATION_REPRESENTATION (  '', ( #870 ), #31 ) ;
#885 = DIRECTION ( 'NONE',  ( -1.000000000000000000, 0.0000000000000000000, 0.0000000000000000000 ) ) ;
#886 = ORIENTED_EDGE ( 'NONE', *, *, #576, .F. ) ;
#887 = ORIENTED_EDGE ( 'NONE', *, *, #536, .F. ) ;
#888 = ORIENTED_EDGE ( 'NONE', *, *, #846, .F. ) ;
#889 = ADVANCED_FACE ( 'NONE', ( #733 ), #256, .F. ) ;
#890 = ORIENTED_EDGE ( 'NONE', *, *, #246, .T. ) ;
#891 = DIRECTION ( 'NONE',  ( 0.0000000000000000000, 0.0000000000000000000, -1.000000000000000000 ) ) ;
#892 = SURFACE_STYLE_FILL_AREA ( #816 ) ;
#893 = PLANE ( 'NONE',  #11 ) ;
#894 = CARTESIAN_POINT ( 'NONE',  ( -0.1300000000000016400, -4.599999999999999600, 1.500000000000000000 ) ) ;
#895 = LINE ( 'NONE', #353, #760 ) ;
#896 = FACE_OUTER_BOUND ( 'NONE', #1055, .T. ) ;
#897 = CARTESIAN_POINT ( 'NONE',  ( -4.710000000000002600, -4.599999999999999600, 1.800000000000000300 ) ) ;
#898 = EDGE_CURVE ( 'NONE', #1208, #264, #941, .T. ) ;
#899 = LINE ( 'NONE', #926, #220 ) ;
#900 = EDGE_CURVE ( 'NONE', #471, #390, #798, .T. ) ;
#901 =( LENGTH_UNIT ( ) NAMED_UNIT ( * ) SI_UNIT ( .MILLI., .METRE. ) );
#902 =( NAMED_UNIT ( * ) SI_UNIT ( $, .STERADIAN. ) SOLID_ANGLE_UNIT ( ) );
#903 = UNCERTAINTY_MEASURE_WITH_UNIT (LENGTH_MEASURE( 1.000000000000000100E-005 ), #177, 'distance_accuracy_value', 'NONE');
#904 = ADVANCED_FACE ( 'NONE', ( #202 ), #432, .T. ) ;
#905 = ORIENTED_EDGE ( 'NONE', *, *, #498, .F. ) ;
#906 = CARTESIAN_POINT ( 'NONE',  ( 5.449999999999999300, -4.599999999999999600, 1.500000000000000000 ) ) ;
#907 = ORIENTED_EDGE ( 'NONE', *, *, #661, .T. ) ;
#908 = DIRECTION ( 'NONE',  ( -0.0000000000000000000, -0.0000000000000000000, -1.000000000000000000 ) ) ;
#909 = ORIENTED_EDGE ( 'NONE', *, *, #1025, .T. ) ;
#910 = VECTOR ( 'NONE', #454, 1000.000000000000000 ) ;
#911 = CARTESIAN_POINT ( 'NONE',  ( 9.800000000000000700, -0.4999999999999977200, 7.200000000000001100 ) ) ;
#912 = CARTESIAN_POINT ( 'NONE',  ( 4.949999999999999300, 0.0000000000000000000, 1.800000000000000300 ) ) ;
#913 = ADVANCED_FACE ( 'NONE', ( #3, #1165 ), #1072, .F. ) ;
#914 = DIRECTION ( 'NONE',  ( -5.692061405548908500E-015, 1.000000000000000000, 0.0000000000000000000 ) ) ;
#915 = COLOUR_RGB ( '',0.2509803921568627400, 0.2509803921568627400, 0.2509803921568627400 ) ;
#916 = VECTOR ( 'NONE', #15, 1000.000000000000000 ) ;
#917 = SURFACE_STYLE_USAGE ( .BOTH. , #636 ) ;
#918 = ADVANCED_FACE ( 'NONE', ( #488 ), #171, .F. ) ;
#919 = MECHANICAL_DESIGN_GEOMETRIC_PRESENTATION_REPRESENTATION (  '', ( #555 ), #654 ) ;
#920 = UNCERTAINTY_MEASURE_WITH_UNIT (LENGTH_MEASURE( 1.000000000000000100E-005 ), #840, 'distance_accuracy_value', 'NONE');
#921 = ORIENTED_EDGE ( 'NONE', *, *, #1222, .F. ) ;
#922 = ORIENTED_EDGE ( 'NONE', *, *, #344, .F. ) ;
#923 = LINE ( 'NONE', #302, #438 ) ;
#924 = FILL_AREA_STYLE ('',( #1217 ) ) ;
#925 = LINE ( 'NONE', #1179, #184 ) ;
#926 = CARTESIAN_POINT ( 'NONE',  ( -0.1300000000000016400, -4.599999999999999600, 1.800000000000000300 ) ) ;
#927 = AXIS2_PLACEMENT_3D ( 'NONE', #238, #624, #143 ) ;
#928 = VECTOR ( 'NONE', #1050, 1000.000000000000000 ) ;
#929 = FACE_OUTER_BOUND ( 'NONE', #809, .T. ) ;
#930 = DIRECTION ( 'NONE',  ( -0.0000000000000000000, -0.0000000000000000000, -1.000000000000000000 ) ) ;
#931 = PRODUCT ( 'CUI_PCN2-S5-S5-S', 'CUI_PCN2-S5-S5-S', '', ( #658 ) ) ;
#932 = DIRECTION ( 'NONE',  ( 0.0000000000000000000, 1.000000000000000000, 0.0000000000000000000 ) ) ;
#933 = AXIS2_PLACEMENT_3D ( 'NONE', #1175, #705, #808 ) ;
#934 = UNCERTAINTY_MEASURE_WITH_UNIT (LENGTH_MEASURE( 1.000000000000000100E-005 ), #160, 'distance_accuracy_value', 'NONE');
#935 = VERTEX_POINT ( 'NONE', #76 ) ;
#936 = VERTEX_POINT ( 'NONE', #1103 ) ;
#937 = EDGE_LOOP ( 'NONE', ( #23, #374 ) ) ;
#938 = ORIENTED_EDGE ( 'NONE', *, *, #341, .T. ) ;
#939 = COLOUR_RGB ( '',1.000000000000000000, 1.000000000000000000, 1.000000000000000000 ) ;
#940 = EDGE_CURVE ( 'NONE', #331, #309, #394, .T. ) ;
#941 = LINE ( 'NONE', #1168, #14 ) ;
#942 = COLOUR_RGB ( '',1.000000000000000000, 1.000000000000000000, 1.000000000000000000 ) ;
#943 = PRESENTATION_STYLE_ASSIGNMENT (( #395 ) ) ;
#944 = DIRECTION ( 'NONE',  ( 1.000000000000000000, 5.692061405548909300E-015, 0.0000000000000000000 ) ) ;
#945 = CARTESIAN_POINT ( 'NONE',  ( -4.710000000000002600, 0.0000000000000000000, 1.800000000000000300 ) ) ;
#946 = EDGE_CURVE ( 'NONE', #568, #539, #895, .T. ) ;
#947 = FILL_AREA_STYLE ('',( #767 ) ) ;
#948 = ORIENTED_EDGE ( 'NONE', *, *, #611, .T. ) ;
#949 = DIRECTION ( 'NONE',  ( 0.0000000000000000000, 0.0000000000000000000, -1.000000000000000000 ) ) ;
#950 = ORIENTED_EDGE ( 'NONE', *, *, #263, .T. ) ;
#951 = CARTESIAN_POINT ( 'NONE',  ( -9.800000000000000700, -0.4999999999999977200, 0.0000000000000000000 ) ) ;
#952 = EDGE_LOOP ( 'NONE', ( #1130, #851, #580, #781 ) ) ;
#953 = DIRECTION ( 'NONE',  ( 0.0000000000000000000, 0.0000000000000000000, 1.000000000000000000 ) ) ;
#954 = FACE_OUTER_BOUND ( 'NONE', #1054, .T. ) ;
#955 = DIRECTION ( 'NONE',  ( -1.000000000000000000, 0.0000000000000000000, 0.0000000000000000000 ) ) ;
#956 = LINE ( 'NONE', #1118, #928 ) ;
#957 = STYLED_ITEM ( 'NONE', ( #701 ), #355 ) ;
#958 = LINE ( 'NONE', #132, #300 ) ;
#959 = PRESENTATION_STYLE_ASSIGNMENT (( #833 ) ) ;
#960 = FILL_AREA_STYLE_COLOUR ( '', #1114 ) ;
#961 = CARTESIAN_POINT ( 'NONE',  ( -9.400000000000002100, -0.5000000000000000000, 7.200000000000001100 ) ) ;
#962 = CARTESIAN_POINT ( 'NONE',  ( 2.540000000000000000, 0.0000000000000000000, 0.0000000000000000000 ) ) ;
#963 = EDGE_CURVE ( 'NONE', #483, #316, #133, .T. ) ;
#964 = CARTESIAN_POINT ( 'NONE',  ( 4.949999999999999300, 0.0000000000000000000, 1.500000000000000000 ) ) ;
#965 = EDGE_LOOP ( 'NONE', ( #1012, #197, #320, #294 ) ) ;
#966 = EDGE_CURVE ( 'NONE', #309, #435, #115, .T. ) ;
#967 = EDGE_LOOP ( 'NONE', ( #494, #87, #922, #909 ) ) ;
#968 = DIRECTION ( 'NONE',  ( 1.000000000000000000, 0.0000000000000000000, 0.0000000000000000000 ) ) ;
#969 = EDGE_LOOP ( 'NONE', ( #1146, #373, #211, #981 ) ) ;
#970 = DIRECTION ( 'NONE',  ( -1.000000000000000000, -0.0000000000000000000, -0.0000000000000000000 ) ) ;
#971 = ORIENTED_EDGE ( 'NONE', *, *, #511, .F. ) ;
#972 = DIRECTION ( 'NONE',  ( 0.0000000000000000000, 0.0000000000000000000, -1.000000000000000000 ) ) ;
#973 = LINE ( 'NONE', #428, #270 ) ;
#974 = CARTESIAN_POINT ( 'NONE',  ( -7.750000000000001800, -4.599999999999999600, 1.500000000000000000 ) ) ;
#975 = LINE ( 'NONE', #284, #274 ) ;
#976 = CARTESIAN_POINT ( 'NONE',  ( -5.210000000000000900, 0.0000000000000000000, 1.800000000000000300 ) ) ;
#977 =( NAMED_UNIT ( * ) SI_UNIT ( $, .STERADIAN. ) SOLID_ANGLE_UNIT ( ) );
#978 = EDGE_LOOP ( 'NONE', ( #807, #282, #653, #24 ) ) ;
#979 = VERTEX_POINT ( 'NONE', #911 ) ;
#980 = AXIS2_PLACEMENT_3D ( 'NONE', #70, #543, #823 ) ;
#981 = ORIENTED_EDGE ( 'NONE', *, *, #843, .T. ) ;
#982 = ORIENTED_EDGE ( 'NONE', *, *, #1140, .F. ) ;
#983 = DIRECTION ( 'NONE',  ( 0.0000000000000000000, 1.000000000000000000, 0.0000000000000000000 ) ) ;
#984 = VECTOR ( 'NONE', #156, 1000.000000000000000 ) ;
#985 = EDGE_CURVE ( 'NONE', #601, #60, #479, .T. ) ;
#986 = DIRECTION ( 'NONE',  ( -1.000000000000000000, 0.0000000000000000000, 0.0000000000000000000 ) ) ;
#987 =( LENGTH_UNIT ( ) NAMED_UNIT ( * ) SI_UNIT ( .MILLI., .METRE. ) );
#988 = SURFACE_STYLE_FILL_AREA ( #718 ) ;
#989 =( NAMED_UNIT ( * ) SI_UNIT ( $, .STERADIAN. ) SOLID_ANGLE_UNIT ( ) );
#990 = DIRECTION ( 'NONE',  ( 1.000000000000000000, 0.0000000000000000000, 0.0000000000000000000 ) ) ;
#991 = CARTESIAN_POINT ( 'NONE',  ( 4.949999999999999300, -4.599999999999999600, 1.800000000000000300 ) ) ;
#992 = VERTEX_POINT ( 'NONE', #1008 ) ;
#993 = DIRECTION ( 'NONE',  ( 0.0000000000000000000, 0.0000000000000000000, -1.000000000000000000 ) ) ;
#994 = ORIENTED_EDGE ( 'NONE', *, *, #536, .T. ) ;
#995 = VECTOR ( 'NONE', #497, 1000.000000000000000 ) ;
#996 = AXIS2_PLACEMENT_3D ( 'NONE', #376, #955, #771 ) ;
#997 =( NAMED_UNIT ( * ) SI_UNIT ( $, .STERADIAN. ) SOLID_ANGLE_UNIT ( ) );
#998 = ADVANCED_FACE ( 'NONE', ( #1093 ), #273, .F. ) ;
#999 = FACE_OUTER_BOUND ( 'NONE', #75, .T. ) ;
#1000 =( LENGTH_UNIT ( ) NAMED_UNIT ( * ) SI_UNIT ( .MILLI., .METRE. ) );
#1001 = PRESENTATION_LAYER_ASSIGNMENT (  '', '', ( #870 ) ) ;
#1002 = LINE ( 'NONE', #325, #1125 ) ;
#1003 = DIRECTION ( 'NONE',  ( 0.0000000000000000000, 0.0000000000000000000, 1.000000000000000000 ) ) ;
#1004 = CARTESIAN_POINT ( 'NONE',  ( -7.250000000000001800, -4.599999999999999600, 1.500000000000000000 ) ) ;
#1005 = ADVANCED_FACE ( 'NONE', ( #660 ), #871, .T. ) ;
#1006 = AXIS2_PLACEMENT_3D ( 'NONE', #4, #764, #490 ) ;
#1007 = DIRECTION ( 'NONE',  ( 0.0000000000000000000, 1.000000000000000000, 0.0000000000000000000 ) ) ;
#1008 = CARTESIAN_POINT ( 'NONE',  ( -7.900000000000002100, 1.199999999999999700, 7.200000000000001100 ) ) ;
#1009 = PLANE ( 'NONE',  #237 ) ;
#1010 = CARTESIAN_POINT ( 'NONE',  ( 7.620000000000000100, -4.599999999999999600, 0.0000000000000000000 ) ) ;
#1011 = CARTESIAN_POINT ( 'NONE',  ( -7.750000000000001800, -4.599999999999999600, 1.500000000000000000 ) ) ;
#1012 = ORIENTED_EDGE ( 'NONE', *, *, #267, .T. ) ;
#1013 = CARTESIAN_POINT ( 'NONE',  ( -4.710000000000002600, -4.599999999999999600, 1.800000000000000300 ) ) ;
#1014 = ORIENTED_EDGE ( 'NONE', *, *, #1157, .T. ) ;
#1015 = DIRECTION ( 'NONE',  ( 0.0000000000000000000, 1.000000000000000000, 0.0000000000000000000 ) ) ;
#1016 = ORIENTED_EDGE ( 'NONE', *, *, #883, .F. ) ;
#1017 = EDGE_CURVE ( 'NONE', #1220, #472, #268, .T. ) ;
#1018 = EDGE_LOOP ( 'NONE', ( #757, #877, #1088, #1039 ) ) ;
#1019 = VECTOR ( 'NONE', #844, 1000.000000000000000 ) ;
#1020 = AXIS2_PLACEMENT_3D ( 'NONE', #1010, #62, #993 ) ;
#1021 = LINE ( 'NONE', #788, #1153 ) ;
#1022 = CARTESIAN_POINT ( 'NONE',  ( -5.210000000000000900, 0.0000000000000000000, 1.800000000000000300 ) ) ;
#1023 = CARTESIAN_POINT ( 'NONE',  ( 9.800000000000000700, -0.4999999999999977200, 0.0000000000000000000 ) ) ;
#1024 = ORIENTED_EDGE ( 'NONE', *, *, #1218, .T. ) ;
#1025 = EDGE_CURVE ( 'NONE', #793, #13, #30, .T. ) ;
#1026 = UNCERTAINTY_MEASURE_WITH_UNIT (LENGTH_MEASURE( 1.000000000000000100E-005 ), #987, 'distance_accuracy_value', 'NONE');
#1027 = VERTEX_POINT ( 'NONE', #123 ) ;
#1028 = ORIENTED_EDGE ( 'NONE', *, *, #898, .F. ) ;
#1029 = PLANE ( 'NONE',  #837 ) ;
#1030 = EDGE_CURVE ( 'NONE', #979, #1220, #1135, .T. ) ;
#1031 = VECTOR ( 'NONE', #1064, 1000.000000000000000 ) ;
#1032 = LINE ( 'NONE', #1063, #527 ) ;
#1033 = FACE_OUTER_BOUND ( 'NONE', #712, .T. ) ;
#1034 = CARTESIAN_POINT ( 'NONE',  ( 9.800000000000000700, 9.700000000000002800, 0.0000000000000000000 ) ) ;
#1035 = CARTESIAN_POINT ( 'NONE',  ( -0.1300000000000016400, -4.599999999999999600, 1.800000000000000300 ) ) ;
#1036 = VECTOR ( 'NONE', #2, 1000.000000000000000 ) ;
#1037 = CARTESIAN_POINT ( 'NONE',  ( 9.400000000000002100, -0.5000000000000000000, 7.200000000000001100 ) ) ;
#1038 = CARTESIAN_POINT ( 'NONE',  ( -4.710000000000002600, -4.599999999999999600, 1.800000000000000300 ) ) ;
#1039 = ORIENTED_EDGE ( 'NONE', *, *, #453, .T. ) ;
#1040 = ORIENTED_EDGE ( 'NONE', *, *, #800, .F. ) ;
#1041 = AXIS2_PLACEMENT_3D ( 'NONE', #698, #801, #239 ) ;
#1042 = ORIENTED_EDGE ( 'NONE', *, *, #303, .F. ) ;
#1043 = ORIENTED_EDGE ( 'NONE', *, *, #678, .T. ) ;
#1044 = EDGE_LOOP ( 'NONE', ( #693, #692, #476, #1024 ) ) ;
#1045 = SURFACE_SIDE_STYLE ('',( #1126 ) ) ;
#1046 = STYLED_ITEM ( 'NONE', ( #105 ), #521 ) ;
#1047 = LINE ( 'NONE', #125, #396 ) ;
#1048 = UNCERTAINTY_MEASURE_WITH_UNIT (LENGTH_MEASURE( 1.000000000000000100E-005 ), #639, 'distance_accuracy_value', 'NONE');
#1049 = EDGE_CURVE ( 'NONE', #111, #694, #717, .T. ) ;
#1050 = DIRECTION ( 'NONE',  ( -0.0000000000000000000, -0.0000000000000000000, -1.000000000000000000 ) ) ;
#1051 = AXIS2_PLACEMENT_3D ( 'NONE', #446, #1192, #173 ) ;
#1052 = CARTESIAN_POINT ( 'NONE',  ( 5.449999999999999300, -4.599999999999999600, 1.800000000000000300 ) ) ;
#1053 = VERTEX_POINT ( 'NONE', #517 ) ;
#1054 = EDGE_LOOP ( 'NONE', ( #676, #129, #1119, #1170 ) ) ;
#1055 = EDGE_LOOP ( 'NONE', ( #181, #196, #635, #1043 ) ) ;
#1056 = PRESENTATION_STYLE_ASSIGNMENT (( #538 ) ) ;
#1057 = ORIENTED_EDGE ( 'NONE', *, *, #246, .F. ) ;
#1058 = LINE ( 'NONE', #1089, #984 ) ;
#1059 = FACE_OUTER_BOUND ( 'NONE', #296, .T. ) ;
#1060 = VECTOR ( 'NONE', #326, 1000.000000000000000 ) ;
#1061 = DIRECTION ( 'NONE',  ( -1.000000000000000000, 0.0000000000000000000, 0.0000000000000000000 ) ) ;
#1062 = AXIS2_PLACEMENT_3D ( 'NONE', #535, #648, #1102 ) ;
#1063 = CARTESIAN_POINT ( 'NONE',  ( -7.750000000000001800, 0.0000000000000000000, 1.800000000000000300 ) ) ;
#1064 = DIRECTION ( 'NONE',  ( 0.0000000000000000000, 1.000000000000000000, 0.0000000000000000000 ) ) ;
#1065 =( LENGTH_UNIT ( ) NAMED_UNIT ( * ) SI_UNIT ( .MILLI., .METRE. ) );
#1066 = STYLED_ITEM ( 'NONE', ( #575 ), #550 ) ;
#1067 =( LENGTH_UNIT ( ) NAMED_UNIT ( * ) SI_UNIT ( .MILLI., .METRE. ) );
#1068 = DIRECTION ( 'NONE',  ( 0.0000000000000000000, 0.0000000000000000000, -1.000000000000000000 ) ) ;
#1069 = PLANE ( 'NONE',  #1041 ) ;
#1070 = ORIENTED_EDGE ( 'NONE', *, *, #263, .F. ) ;
#1071 = ORIENTED_EDGE ( 'NONE', *, *, #425, .F. ) ;
#1072 = PLANE ( 'NONE',  #163 ) ;
#1073 = CIRCLE ( 'NONE', #1062, 0.4000000000000001900 ) ;
#1074 = VECTOR ( 'NONE', #734, 1000.000000000000000 ) ;
#1075 = CARTESIAN_POINT ( 'NONE',  ( 9.800000000000000700, -0.4999999999999977200, 7.200000000000001100 ) ) ;
#1076 = EDGE_CURVE ( 'NONE', #92, #1108, #854, .T. ) ;
#1077 = SURFACE_STYLE_FILL_AREA ( #167 ) ;
#1078 = SURFACE_SIDE_STYLE ('',( #560 ) ) ;
#1079 = COLOUR_RGB ( '',0.2509803921568627400, 0.2509803921568627400, 0.2509803921568627400 ) ;
#1080 = STYLED_ITEM ( 'NONE', ( #378 ), #1113 ) ;
#1081 = DIRECTION ( 'NONE',  ( 0.0000000000000000000, -1.000000000000000000, 0.0000000000000000000 ) ) ;
#1082 = DIRECTION ( 'NONE',  ( -1.000000000000000000, 0.0000000000000000000, 0.0000000000000000000 ) ) ;
#1083 = ORIENTED_EDGE ( 'NONE', *, *, #35, .T. ) ;
#1084 = PRESENTATION_LAYER_ASSIGNMENT (  '', '', ( #1046 ) ) ;
#1085 = ORIENTED_EDGE ( 'NONE', *, *, #874, .T. ) ;
#1086 = DIRECTION ( 'NONE',  ( 0.0000000000000000000, 0.0000000000000000000, -1.000000000000000000 ) ) ;
#1087 = FILL_AREA_STYLE_COLOUR ( '', #80 ) ;
#1088 = ORIENTED_EDGE ( 'NONE', *, *, #834, .F. ) ;
#1089 = CARTESIAN_POINT ( 'NONE',  ( -7.750000000000001800, -4.599999999999999600, 1.800000000000000300 ) ) ;
#1090 = AXIS2_PLACEMENT_3D ( 'NONE', #897, #885, #136 ) ;
#1091 = VECTOR ( 'NONE', #891, 1000.000000000000000 ) ;
#1092 = VECTOR ( 'NONE', #277, 1000.000000000000000 ) ;
#1093 = FACE_OUTER_BOUND ( 'NONE', #872, .T. ) ;
#1094 = EDGE_CURVE ( 'NONE', #8, #861, #845, .T. ) ;
#1095 = SURFACE_STYLE_FILL_AREA ( #873 ) ;
#1096 = APPLICATION_CONTEXT ( 'automotive_design' ) ;
#1097 = LINE ( 'NONE', #227, #154 ) ;
#1098 = ADVANCED_FACE ( 'NONE', ( #1059 ), #1069, .F. ) ;
#1099 = EDGE_CURVE ( 'NONE', #472, #783, #696, .T. ) ;
#1100 = LINE ( 'NONE', #304, #599 ) ;
#1101 =( NAMED_UNIT ( * ) PLANE_ANGLE_UNIT ( ) SI_UNIT ( $, .RADIAN. ) );
#1102 = DIRECTION ( 'NONE',  ( 1.000000000000000000, 0.0000000000000000000, 0.0000000000000000000 ) ) ;
#1103 = CARTESIAN_POINT ( 'NONE',  ( -7.100000000000002300, 1.199999999999999700, 7.200000000000001100 ) ) ;
#1104 =( NAMED_UNIT ( * ) SI_UNIT ( $, .STERADIAN. ) SOLID_ANGLE_UNIT ( ) );
#1105 = ADVANCED_FACE ( 'NONE', ( #1124 ), #338, .F. ) ;
#1106 = PLANE ( 'NONE',  #763 ) ;
#1107 = ORIENTED_EDGE ( 'NONE', *, *, #1025, .F. ) ;
#1108 = VERTEX_POINT ( 'NONE', #878 ) ;
#1109 = VERTEX_POINT ( 'NONE', #881 ) ;
#1110 = PRESENTATION_STYLE_ASSIGNMENT (( #68 ) ) ;
#1111 = CARTESIAN_POINT ( 'NONE',  ( -5.210000000000000900, 0.0000000000000000000, 1.500000000000000000 ) ) ;
#1112 = VECTOR ( 'NONE', #244, 1000.000000000000000 ) ;
#1113 = ADVANCED_FACE ( 'NONE', ( #1176 ), #128, .F. ) ;
#1114 = COLOUR_RGB ( '',1.000000000000000000, 1.000000000000000000, 1.000000000000000000 ) ;
#1115 = AXIS2_PLACEMENT_3D ( 'NONE', #192, #849, #386 ) ;
#1116 = DIRECTION ( 'NONE',  ( 0.0000000000000000000, 0.0000000000000000000, -1.000000000000000000 ) ) ;
#1117 = ORIENTED_EDGE ( 'NONE', *, *, #411, .F. ) ;
#1118 = CARTESIAN_POINT ( 'NONE',  ( 9.800000000000000700, -0.4999999999999977200, 7.200000000000001100 ) ) ;
#1119 = ORIENTED_EDGE ( 'NONE', *, *, #385, .F. ) ;
#1120 = AXIS2_PLACEMENT_3D ( 'NONE', #416, #1159, #972 ) ;
#1121 = EDGE_LOOP ( 'NONE', ( #52, #359, #317, #245 ) ) ;
#1122 = VECTOR ( 'NONE', #810, 1000.000000000000000 ) ;
#1123 = CARTESIAN_POINT ( 'NONE',  ( -5.210000000000000900, -4.599999999999999600, 1.800000000000000300 ) ) ;
#1124 = FACE_OUTER_BOUND ( 'NONE', #1121, .T. ) ;
#1125 = VECTOR ( 'NONE', #514, 1000.000000000000000 ) ;
#1126 = SURFACE_STYLE_FILL_AREA ( #947 ) ;
#1127 = DIRECTION ( 'NONE',  ( 0.0000000000000000000, 0.0000000000000000000, -1.000000000000000000 ) ) ;
#1128 = MANIFOLD_SOLID_BREP ( 'Cut-Extrude1', #281 ) ;
#1129 = AXIS2_PLACEMENT_3D ( 'NONE', #58, #1081, #44 ) ;
#1130 = ORIENTED_EDGE ( 'NONE', *, *, #1076, .T. ) ;
#1131 = EDGE_CURVE ( 'NONE', #328, #677, #487, .T. ) ;
#1132 = ORIENTED_EDGE ( 'NONE', *, *, #1131, .T. ) ;
#1133 = ORIENTED_EDGE ( 'NONE', *, *, #1222, .T. ) ;
#1134 = AXIS2_PLACEMENT_3D ( 'NONE', #470, #537, #1139 ) ;
#1135 = LINE ( 'NONE', #1075, #1031 ) ;
#1136 = FACE_OUTER_BOUND ( 'NONE', #54, .T. ) ;
#1137 = SURFACE_STYLE_FILL_AREA ( #77 ) ;
#1138 =( NAMED_UNIT ( * ) PLANE_ANGLE_UNIT ( ) SI_UNIT ( $, .RADIAN. ) );
#1139 = DIRECTION ( 'NONE',  ( 1.000000000000000000, 0.0000000000000000000, 0.0000000000000000000 ) ) ;
#1140 = EDGE_CURVE ( 'NONE', #471, #306, #114, .T. ) ;
#1141 = DIRECTION ( 'NONE',  ( -0.0000000000000000000, -0.0000000000000000000, -1.000000000000000000 ) ) ;
#1142 = ORIENTED_EDGE ( 'NONE', *, *, #681, .F. ) ;
#1143 = CARTESIAN_POINT ( 'NONE',  ( -5.210000000000000900, -4.599999999999999600, 1.800000000000000300 ) ) ;
#1144 = VECTOR ( 'NONE', #195, 1000.000000000000000 ) ;
#1145 = FACE_OUTER_BOUND ( 'NONE', #402, .T. ) ;
#1146 = ORIENTED_EDGE ( 'NONE', *, *, #1195, .F. ) ;
#1147 = CARTESIAN_POINT ( 'NONE',  ( -5.210000000000000900, -4.599999999999999600, 1.800000000000000300 ) ) ;
#1148 = SURFACE_STYLE_FILL_AREA ( #526 ) ;
#1149 =( GEOMETRIC_REPRESENTATION_CONTEXT ( 3 ) GLOBAL_UNCERTAINTY_ASSIGNED_CONTEXT ( ( #726 ) ) GLOBAL_UNIT_ASSIGNED_CONTEXT ( ( #1166, #880, #989 ) ) REPRESENTATION_CONTEXT ( 'NONE', 'WORKASPACE' ) );
#1150 = VECTOR ( 'NONE', #551, 1000.000000000000000 ) ;
#1151 = FILL_AREA_STYLE_COLOUR ( '', #392 ) ;
#1152 =( GEOMETRIC_REPRESENTATION_CONTEXT ( 3 ) GLOBAL_UNCERTAINTY_ASSIGNED_CONTEXT ( ( #383 ) ) GLOBAL_UNIT_ASSIGNED_CONTEXT ( ( #501, #776, #754 ) ) REPRESENTATION_CONTEXT ( 'NONE', 'WORKASPACE' ) );
#1153 = VECTOR ( 'NONE', #234, 1000.000000000000000 ) ;
#1154 = LINE ( 'NONE', #298, #625 ) ;
#1155 = SURFACE_STYLE_USAGE ( .BOTH. , #21 ) ;
#1156 = DIRECTION ( 'NONE',  ( 0.0000000000000000000, 0.0000000000000000000, -1.000000000000000000 ) ) ;
#1157 = EDGE_CURVE ( 'NONE', #794, #92, #409, .T. ) ;
#1158 = ADVANCED_BREP_SHAPE_REPRESENTATION ( 'CUI_PCN2-S5-S5-S', ( #796, #1128, #419, #633, #664, #240 ), #600 ) ;
#1159 = DIRECTION ( 'NONE',  ( 0.0000000000000000000, -1.000000000000000000, 0.0000000000000000000 ) ) ;
#1160 = ORIENTED_EDGE ( 'NONE', *, *, #1177, .T. ) ;
#1161 = ORIENTED_EDGE ( 'NONE', *, *, #577, .T. ) ;
#1162 = CARTESIAN_POINT ( 'NONE',  ( -9.800000000000000700, -0.4999999999999977200, 7.200000000000001100 ) ) ;
#1163 = CARTESIAN_POINT ( 'NONE',  ( -9.800000000000000700, 9.700000000000002800, 0.0000000000000000000 ) ) ;
#1164 = DIRECTION ( 'NONE',  ( 0.0000000000000000000, 0.0000000000000000000, 1.000000000000000000 ) ) ;
#1165 = FACE_OUTER_BOUND ( 'NONE', #640, .T. ) ;
#1166 =( LENGTH_UNIT ( ) NAMED_UNIT ( * ) SI_UNIT ( .MILLI., .METRE. ) );
#1167 = CARTESIAN_POINT ( 'NONE',  ( -7.250000000000001800, -4.599999999999999600, 1.800000000000000300 ) ) ;
#1168 = CARTESIAN_POINT ( 'NONE',  ( -9.400000000000002100, 0.0000000000000000000, 0.0000000000000000000 ) ) ;
#1169 = PRESENTATION_LAYER_ASSIGNMENT (  '', '', ( #1066 ) ) ;
#1170 = ORIENTED_EDGE ( 'NONE', *, *, #1049, .F. ) ;
#1171 = CARTESIAN_POINT ( 'NONE',  ( 4.949999999999999300, -4.599999999999999600, 1.500000000000000000 ) ) ;
#1172 = VERTEX_POINT ( 'NONE', #1111 ) ;
#1173 = DIRECTION ( 'NONE',  ( -1.000000000000000000, 0.0000000000000000000, 0.0000000000000000000 ) ) ;
#1174 = FACE_OUTER_BOUND ( 'NONE', #572, .T. ) ;
#1175 = CARTESIAN_POINT ( 'NONE',  ( -7.750000000000001800, -4.599999999999999600, 1.500000000000000000 ) ) ;
#1176 = FACE_OUTER_BOUND ( 'NONE', #198, .T. ) ;
#1177 = EDGE_CURVE ( 'NONE', #101, #568, #149, .T. ) ;
#1178 = COLOUR_RGB ( '',1.000000000000000000, 1.000000000000000000, 1.000000000000000000 ) ;
#1179 = CARTESIAN_POINT ( 'NONE',  ( 4.949999999999999300, -4.599999999999999600, 1.800000000000000300 ) ) ;
#1180 = LINE ( 'NONE', #991, #137 ) ;
#1181 = CARTESIAN_POINT ( 'NONE',  ( -9.800000000000000700, -0.4999999999999977200, 7.200000000000001100 ) ) ;
#1182 = DIRECTION ( 'NONE',  ( 0.0000000000000000000, -1.000000000000000000, 0.0000000000000000000 ) ) ;
#1183 = SURFACE_SIDE_STYLE ('',( #1137 ) ) ;
#1184 = ORIENTED_EDGE ( 'NONE', *, *, #883, .T. ) ;
#1185 = ORIENTED_EDGE ( 'NONE', *, *, #567, .F. ) ;
#1186 = DIRECTION ( 'NONE',  ( 0.0000000000000000000, 1.000000000000000000, 0.0000000000000000000 ) ) ;
#1187 = ORIENTED_EDGE ( 'NONE', *, *, #822, .T. ) ;
#1188 = CARTESIAN_POINT ( 'NONE',  ( 12.70000000000000100, 0.0000000000000000000, 0.0000000000000000000 ) ) ;
#1189 =( GEOMETRIC_REPRESENTATION_CONTEXT ( 3 ) GLOBAL_UNCERTAINTY_ASSIGNED_CONTEXT ( ( #327 ) ) GLOBAL_UNIT_ASSIGNED_CONTEXT ( ( #405, #680, #977 ) ) REPRESENTATION_CONTEXT ( 'NONE', 'WORKASPACE' ) );
#1190 = CARTESIAN_POINT ( 'NONE',  ( -0.1300000000000016400, 0.0000000000000000000, 1.500000000000000000 ) ) ;
#1191 = ADVANCED_FACE ( 'NONE', ( #999 ), #720, .T. ) ;
#1192 = DIRECTION ( 'NONE',  ( 0.0000000000000000000, 0.0000000000000000000, 1.000000000000000000 ) ) ;
#1193 = VECTOR ( 'NONE', #426, 1000.000000000000000 ) ;
#1194 = CARTESIAN_POINT ( 'NONE',  ( -9.400000000000002100, 0.0000000000000000000, 7.200000000000001100 ) ) ;
#1195 = EDGE_CURVE ( 'NONE', #1207, #992, #747, .T. ) ;
#1196 = FACE_OUTER_BOUND ( 'NONE', #194, .T. ) ;
#1197 = PRESENTATION_STYLE_ASSIGNMENT (( #89 ) ) ;
#1198 = CARTESIAN_POINT ( 'NONE',  ( -7.750000000000001800, -4.599999999999999600, 1.800000000000000300 ) ) ;
#1199 = MECHANICAL_DESIGN_GEOMETRIC_PRESENTATION_REPRESENTATION (  '', ( #305 ), #401 ) ;
#1200 = DIRECTION ( 'NONE',  ( 1.000000000000000000, 0.0000000000000000000, 0.0000000000000000000 ) ) ;
#1201 = SURFACE_STYLE_FILL_AREA ( #564 ) ;
#1202 = DIRECTION ( 'NONE',  ( 1.000000000000000000, 5.692061405548909300E-015, 0.0000000000000000000 ) ) ;
#1203 = ADVANCED_FACE ( 'NONE', ( #525 ), #449, .F. ) ;
#1204 = CARTESIAN_POINT ( 'NONE',  ( -7.900000000000002100, 1.199999999999999700, 7.150000000000000400 ) ) ;
#1205 = DIRECTION ( 'NONE',  ( -0.0000000000000000000, -1.000000000000000000, -0.0000000000000000000 ) ) ;
#1206 = SURFACE_SIDE_STYLE ('',( #1201 ) ) ;
#1207 = VERTEX_POINT ( 'NONE', #72 ) ;
#1208 = VERTEX_POINT ( 'NONE', #553 ) ;
#1209 = ORIENTED_EDGE ( 'NONE', *, *, #139, .T. ) ;
#1210 =( GEOMETRIC_REPRESENTATION_CONTEXT ( 3 ) GLOBAL_UNCERTAINTY_ASSIGNED_CONTEXT ( ( #613 ) ) GLOBAL_UNIT_ASSIGNED_CONTEXT ( ( #1065, #687, #778 ) ) REPRESENTATION_CONTEXT ( 'NONE', 'WORKASPACE' ) );
#1211 = VECTOR ( 'NONE', #121, 1000.000000000000000 ) ;
#1212 = CYLINDRICAL_SURFACE ( 'NONE', #1134, 0.4000000000000001900 ) ;
#1213 = DIRECTION ( 'NONE',  ( 0.0000000000000000000, 1.000000000000000000, 0.0000000000000000000 ) ) ;
#1214 = DIRECTION ( 'NONE',  ( 0.0000000000000000000, 1.000000000000000000, 0.0000000000000000000 ) ) ;
#1215 = LINE ( 'NONE', #629, #32 ) ;
#1216 = AXIS2_PLACEMENT_3D ( 'NONE', #1162, #968, #867 ) ;
#1217 = FILL_AREA_STYLE_COLOUR ( '', #671 ) ;
#1218 = EDGE_CURVE ( 'NONE', #656, #1172, #249, .T. ) ;
#1219 = ORIENTED_EDGE ( 'NONE', *, *, #533, .F. ) ;
#1220 = VERTEX_POINT ( 'NONE', #347 ) ;
#1221 = PLANE ( 'NONE',  #1115 ) ;
#1222 = EDGE_CURVE ( 'NONE', #435, #793, #1058, .T. ) ;
#1223 = ORIENTED_EDGE ( 'NONE', *, *, #425, .T. ) ;
#1224 = ORIENTED_EDGE ( 'NONE', *, *, #681, .T. ) ;
ENDSEC;
END-ISO-10303-21;
